mips_cpu_bus_tb.vcd
$date
	Sun Dec 20 18:27:13 2020
$end
$version
	Icarus Verilog
$end
$timescale
	1s
$end
$scope module mips_cpu_bus_tb $end
$var wire 32 ! writedata [31:0] $end
$var wire 1 " write $end
$var wire 32 # register_v0 [31:0] $end
$var wire 32 $ readdata [31:0] $end
$var wire 1 % read $end
$var wire 4 & byteenable [3:0] $end
$var wire 32 ' address [31:0] $end
$var wire 1 ( active $end
$var reg 1 ) clk $end
$var reg 1 * reset $end
$var reg 1 + waitrequest $end
$scope module cpuInst $end
$var wire 1 ) clk $end
$var wire 1 * reset $end
$var wire 1 + waitrequest $end
$var wire 32 , writedata [31:0] $end
$var wire 32 - register_v0 [31:0] $end
$var wire 32 . readdata [31:0] $end
$var wire 32 / instr_addr [31:0] $end
$var wire 1 0 data_write $end
$var wire 1 1 data_read_en $end
$var wire 32 2 data_addr [31:0] $end
$var wire 4 3 byteenable [3:0] $end
$var wire 1 ( active $end
$var reg 32 4 address [31:0] $end
$var reg 1 5 clk_enable $end
$var reg 32 6 data_read [31:0] $end
$var reg 32 7 data_reg [31:0] $end
$var reg 1 8 delayed $end
$var reg 32 9 instr_addr_reg [31:0] $end
$var reg 32 : instr_read [31:0] $end
$var reg 32 ; instr_reg [31:0] $end
$var reg 2 < next_state [1:0] $end
$var reg 1 % read $end
$var reg 2 = state [1:0] $end
$var reg 1 " write $end
$scope module harvard_cpu $end
$var wire 1 ) clk $end
$var wire 1 5 clk_enable $end
$var wire 32 > data_readdata [31:0] $end
$var wire 32 ? instr_readdata [31:0] $end
$var wire 1 * reset $end
$var wire 1 @ zero $end
$var wire 32 A register_v0 [31:0] $end
$var wire 32 B read_data_b [31:0] $end
$var wire 32 C read_data_a [31:0] $end
$var wire 1 D negative $end
$var wire 1 E equal $end
$var wire 32 F alu_result [31:0] $end
$var reg 1 ( active $end
$var reg 32 G alu_b [31:0] $end
$var reg 4 H alu_control [3:0] $end
$var reg 5 I alu_shift_amt [4:0] $end
$var reg 32 J data_address [31:0] $end
$var reg 4 K data_byteenable [3:0] $end
$var reg 1 1 data_read $end
$var reg 1 0 data_write $end
$var reg 32 L data_writedata [31:0] $end
$var reg 32 M hi_in [31:0] $end
$var reg 32 N hi_reg [31:0] $end
$var reg 32 O instr_address [31:0] $end
$var reg 32 P ir_reg [31:0] $end
$var reg 32 Q lo_in [31:0] $end
$var reg 32 R lo_reg [31:0] $end
$var reg 32 S pc_in [31:0] $end
$var reg 32 T pc_reg [31:0] $end
$var reg 64 U product [63:0] $end
$var reg 5 V regfile_write_addr [4:0] $end
$var reg 32 W regfile_write_data [31:0] $end
$var reg 1 X regfile_write_enable $end
$var reg 32 Y sign_extended_immediate [31:0] $end
$var reg 64 Z u_product [63:0] $end
$scope module alu $end
$var wire 32 [ alu_b [31:0] $end
$var wire 4 \ alu_control [3:0] $end
$var wire 5 ] alu_shift_amt [4:0] $end
$var wire 32 ^ alu_a [31:0] $end
$var reg 32 _ alu_out [31:0] $end
$var reg 1 E equal $end
$var reg 1 D negative $end
$var reg 1 @ zero $end
$upscope $end
$scope module reg_file $end
$var wire 1 ) clk $end
$var wire 1 5 clk_enable $end
$var wire 5 ` read_addr_a [4:0] $end
$var wire 5 a read_addr_b [4:0] $end
$var wire 5 b regfile_write_addr [4:0] $end
$var wire 32 c regfile_write_data [31:0] $end
$var wire 1 X regfile_write_enable $end
$var wire 1 * reset $end
$var reg 32 d read_data_a [31:0] $end
$var reg 32 e read_data_b [31:0] $end
$var reg 32 f register_v0 [31:0] $end
$var integer 32 g i [31:0] $end
$upscope $end
$upscope $end
$upscope $end
$scope module ramInst $end
$var wire 32 h address [31:0] $end
$var wire 4 i byteenable [3:0] $end
$var wire 1 ) clk $end
$var wire 1 % read $end
$var wire 1 + waitrequest $end
$var wire 1 " write $end
$var wire 32 j writedata [31:0] $end
$var reg 13 k mapped_address [12:0] $end
$var reg 32 l readdata [31:0] $end
$scope begin $unm_blk_1 $end
$var integer 32 m i [31:0] $end
$upscope $end
$upscope $end
$upscope $end
$enddefinitions $end
#0
$dumpvars
b10000000000000 m
bx l
bx k
bx j
bx i
bx h
bx g
bx f
bx e
bx d
bx c
bx b
bx a
bx `
bx _
bx ^
bx ]
bx \
bx [
bx Z
bx Y
xX
bx W
bx V
bx U
bx T
bx S
bx R
bx Q
bx P
bx O
bx N
bx M
bx L
bx K
bx J
bx I
bx H
bx G
bx F
xE
xD
bx C
bx B
bx A
x@
bx ?
bx >
bx =
b11 <
bx ;
bx :
bx 9
x8
bx 7
bx 6
15
bx 4
bx 3
bx 2
x1
x0
bx /
bx .
bx -
bx ,
0+
0*
0)
x(
bx '
bx &
0%
bx $
bx #
0"
bx !
$end
#10
bx00 k
bx00 '
bx00 4
bx00 h
b0 !
b0 ,
b0 L
b0 j
b1111 &
b1111 3
b1111 K
b1111 i
b0 H
b0 \
b0 Z
b0 U
bx00 2
bx00 J
0D
1@
b0 B
b0 e
b0 C
b0 ^
b0 d
b0 #
b0 -
b0 A
b0 f
b11 =
1*
1)
#20
0)
#30
b0 W
b0 c
b0 2
b0 J
1E
b0 F
b0 _
b0 G
b0 [
b1010000000000 k
b0 6
b0 >
b0 :
b0 ?
1%
b10111111110000000000000000000000 '
b10111111110000000000000000000000 4
b10111111110000000000000000000000 h
05
b10 <
b0 `
b0 a
b111 H
b111 \
b0 Q
b0 M
b10111111110000000000000000000100 S
1X
b0 V
b0 b
b0 &
b0 3
b0 K
b0 i
01
00
b0 Z
b0 U
b0 I
b0 ]
b0 Y
b10111111110000000000000000000000 /
b10111111110000000000000000000000 O
0D
1@
b0 B
b0 e
b0 C
b0 ^
b0 d
0*
b0 9
b0 7
b0 ;
08
1(
b0 R
b0 N
b0 P
b10111111110000000000000000000000 T
b100000 g
1)
#40
0)
#50
b0 k
b100100010000100000000000000001 :
b100100010000100000000000000001 ?
0%
b0 '
b0 4
b0 h
15
b11 <
b100100010000100000000000000001 $
b100100010000100000000000000001 .
b100100010000100000000000000001 l
b10111111110000000000000000000000 9
b10 =
1)
#60
0)
#70
b1 W
b1 c
b1010000000100 k
0E
b1 F
b1 _
1%
b10111111110000000000000000000100 '
b10111111110000000000000000000100 4
b10111111110000000000000000000100 h
05
b10 <
b10 `
b10 a
b10111111110000000000000000001000 S
b1111 &
b1111 3
b1111 K
b1111 i
b0 H
b0 \
b10 V
b10 b
b1 G
b1 [
b1 Y
b10111111110000000000000000000100 /
b10111111110000000000000000000100 O
b100100010000100000000000000001 ;
b11 =
b100100010000100000000000000001 P
b10111111110000000000000000000100 T
1)
#80
0)
#90
b0 k
b100111100111000000000000011001 :
b100111100111000000000000011001 ?
0%
b0 '
b0 4
b0 h
15
b11 <
b100111100111000000000000011001 $
b100111100111000000000000011001 .
b100111100111000000000000011001 l
b10111111110000000000000000000100 9
b10 =
1)
#100
0)
#110
b11000 2
b11000 J
b1010000001000 k
1%
b10111111110000000000000000001000 '
b10111111110000000000000000001000 4
b10111111110000000000000000001000 h
05
b10 <
b11100 `
b11100 a
b10111111110000000000000000001100 S
b11001 W
b11001 c
b0 !
b0 ,
b0 L
b0 j
b11100 V
b11100 b
b11001 G
b11001 [
b0 Z
b0 U
b11001 Y
b10111111110000000000000000001000 /
b10111111110000000000000000001000 O
0E
1@
b11001 F
b11001 _
b0 B
b0 e
b0 C
b0 ^
b0 d
b1 #
b1 -
b1 A
b1 f
b100111100111000000000000011001 ;
b11 =
b100111100111000000000000011001 P
b10111111110000000000000000001000 T
1)
#120
0)
#130
b11000 k
b100111101111010000000000000100 :
b100111101111010000000000000100 ?
0%
b11000 '
b11000 4
b11000 h
15
b11 <
b100111101111010000000000000100 $
b100111101111010000000000000100 .
b100111101111010000000000000100 l
b10111111110000000000000000001000 9
b10 =
1)
#140
0)
#150
b1010000001100 k
1%
b10111111110000000000000000001100 '
b10111111110000000000000000001100 4
b10111111110000000000000000001100 h
05
b10 <
b11101 `
b11101 a
b10111111110000000000000000010000 S
b100 W
b100 c
b0 !
b0 ,
b0 L
b0 j
b11101 V
b11101 b
b100 G
b100 [
b0 Z
b0 U
b0 I
b0 ]
b100 Y
b100 2
b100 J
b10111111110000000000000000001100 /
b10111111110000000000000000001100 O
0E
1@
b100 F
b100 _
b0 B
b0 e
b0 C
b0 ^
b0 d
b100111101111010000000000000100 ;
b11 =
b100111101111010000000000000100 P
b10111111110000000000000000001100 T
1)
#160
0)
#170
b100 k
b10101111101000100000000000000100 :
b10101111101000100000000000000100 ?
0%
b100 '
b100 4
b100 h
15
b11 <
b10101111101000100000000000000100 $
b10101111101000100000000000000100 .
b10101111101000100000000000000100 l
b10111111110000000000000000001100 9
b10 =
1)
#180
0)
#190
b1010000010000 k
1%
b10111111110000000000000000010000 '
b10111111110000000000000000010000 4
b10111111110000000000000000010000 h
05
b10 <
b10 a
b10111111110000000000000000010100 S
b1000 W
b1000 c
b1 !
b1 ,
b1 L
b1 j
0X
b10 V
b10 b
10
b100 Z
b100 U
b100 I
b100 ]
b1000 2
b1000 J
b10111111110000000000000000010000 /
b10111111110000000000000000010000 O
1E
0@
b1000 F
b1000 _
b1 B
b1 e
b100 C
b100 ^
b100 d
b10101111101000100000000000000100 ;
b11 =
b10101111101000100000000000000100 P
b10111111110000000000000000010000 T
1)
#200
0)
#210
b1000 k
b100100101001010000000000000001 :
b100100101001010000000000000001 ?
0%
1"
b1000 '
b1000 4
b1000 h
15
b1 <
b100100101001010000000000000001 $
b100100101001010000000000000001 .
b100100101001010000000000000001 l
b10111111110000000000000000010000 9
b10 =
1)
#220
0)
#230
1@
b1 W
b1 c
b0 !
b0 ,
b0 L
b0 j
b0 Z
b0 U
b0 2
b0 J
b1010000010100 k
b0 B
b0 e
b0 C
b0 ^
b0 d
0E
b1 F
b1 _
1%
0"
b10111111110000000000000000010100 '
b10111111110000000000000000010100 4
b10111111110000000000000000010100 h
05
b10 <
b101 `
b101 a
b10111111110000000000000000011000 S
1X
b101 V
b101 b
b1 G
b1 [
00
b0 I
b0 ]
b1 Y
b10111111110000000000000000010100 /
b10111111110000000000000000010100 O
b100100101001010000000000000001 ;
b1 =
b100100101001010000000000000001 P
b10111111110000000000000000010100 T
1)
#240
0)
#250
b0 k
b10101111101000100000000000001000 :
b10101111101000100000000000001000 ?
0%
b0 '
b0 4
b0 h
15
b11 <
b10101111101000100000000000001000 $
b10101111101000100000000000001000 .
b10101111101000100000000000001000 l
b10111111110000000000000000010100 9
b10 =
1)
#260
0)
#270
b1100 2
b1100 J
b1010000011000 k
1%
b10111111110000000000000000011000 '
b10111111110000000000000000011000 4
b10111111110000000000000000011000 h
05
b10 <
b11101 `
b10 a
b10111111110000000000000000011100 S
b1100 W
b1100 c
b1 !
b1 ,
b1 L
b1 j
0X
b10 V
b10 b
b1000 G
b1000 [
10
b100 Z
b100 U
b1000 Y
b10111111110000000000000000011000 /
b10111111110000000000000000011000 O
0E
0@
b1100 F
b1100 _
b1 B
b1 e
b100 C
b100 ^
b100 d
b10101111101000100000000000001000 ;
b11 =
b10101111101000100000000000001000 P
b10111111110000000000000000011000 T
1)
#280
0)
#290
b1100 k
b100100101001010000000000000001 :
b100100101001010000000000000001 ?
0%
1"
b1100 '
b1100 4
b1100 h
15
b1 <
b100100101001010000000000000001 $
b100100101001010000000000000001 .
b100100101001010000000000000001 l
b10111111110000000000000000011000 9
b10 =
1)
#300
0)
#310
1E
b10 W
b10 c
b1 Z
b1 U
b0 2
b0 J
b1010000011100 k
b1 C
b1 ^
b1 d
b10 F
b10 _
1%
0"
b10111111110000000000000000011100 '
b10111111110000000000000000011100 4
b10111111110000000000000000011100 h
05
b10 <
b101 `
b101 a
b10111111110000000000000000100000 S
1X
b101 V
b101 b
b1 G
b1 [
00
b1 Y
b10111111110000000000000000011100 /
b10111111110000000000000000011100 O
b100100101001010000000000000001 ;
b1 =
b100100101001010000000000000001 P
b10111111110000000000000000011100 T
1)
#320
0)
#330
b0 k
b10001111101000110000000000000100 :
b10001111101000110000000000000100 ?
0%
b0 '
b0 4
b0 h
15
b11 <
b10001111101000110000000000000100 $
b10001111101000110000000000000100 .
b10001111101000110000000000000100 l
b10111111110000000000000000011100 9
b10 =
1)
#340
0)
#350
b1000 2
b1000 J
b1010000100000 k
1%
b10111111110000000000000000100000 '
b10111111110000000000000000100000 4
b10111111110000000000000000100000 h
05
b10 <
b11101 `
b11 a
b10111111110000000000000000100100 S
b0 W
b0 c
b0 !
b0 ,
b0 L
b0 j
b11 V
b11 b
b100 G
b100 [
11
b0 Z
b0 U
b100 I
b100 ]
b100 Y
b10111111110000000000000000100000 /
b10111111110000000000000000100000 O
1E
b1000 F
b1000 _
b0 B
b0 e
b100 C
b100 ^
b100 d
b10001111101000110000000000000100 ;
b11 =
b10001111101000110000000000000100 P
b10111111110000000000000000100000 T
1)
#360
0)
#370
b1000 k
b10001111101001000000000000001000 :
b10001111101001000000000000001000 ?
b1000 '
b1000 4
b1000 h
b0 <
b10001111101001000000000000001000 $
b10001111101001000000000000001000 .
b10001111101001000000000000001000 l
b10111111110000000000000000100000 9
b10 =
1)
#380
0)
#390
b1 W
b1 c
b1 6
b1 >
0%
15
b11 <
b10001111101001000000000000001000 ;
b0 =
b1 $
b1 .
b1 l
1)
#400
0)
#410
b1010000100100 k
b1100 2
b1100 J
b10111111110000000000000000100100 '
b10111111110000000000000000100100 4
b10111111110000000000000000100100 h
0E
b1100 F
b1100 _
b100 a
b10111111110000000000000000101000 S
b100 V
b100 b
b1000 G
b1000 [
b0 I
b0 ]
b1000 Y
b10111111110000000000000000100100 /
b10111111110000000000000000100100 O
1%
05
b10 <
b10001111101001000000000000001000 P
b10111111110000000000000000100100 T
b1 7
b11 =
1)
#420
0)
#430
b1100 k
b11001000001000000100001 :
b11001000001000000100001 ?
b1100 '
b1100 4
b1100 h
b0 <
b10111111110000000000000000100100 9
b10 =
b11001000001000000100001 $
b11001000001000000100001 .
b11001000001000000100001 l
1)
#440
0)
#450
0%
15
b11 <
b1 $
b1 .
b1 l
b11001000001000000100001 ;
b0 =
1)
#460
0)
#470
1E
b0 2
b0 J
b1010000101000 k
b1 C
b1 ^
b1 d
b10 F
b10 _
1%
b10111111110000000000000000101000 '
b10111111110000000000000000101000 4
b10111111110000000000000000101000 h
05
b10 <
b11 `
b10111111110000000000000000101100 S
b10 W
b10 c
b10 V
b10 b
b1 G
b1 [
b0 &
b0 3
b0 K
b0 i
01
b1 Z
b1 U
b1000000100001 Y
b10111111110000000000000000101000 /
b10111111110000000000000000101000 O
b1 B
b1 e
b11 =
b11001000001000000100001 P
b10111111110000000000000000101000 T
1)
#480
0)
#490
b0 k
b10101111101000100000000000001100 :
b10101111101000100000000000001100 ?
0%
b0 '
b0 4
b0 h
15
b11 <
b10101111101000100000000000001100 $
b10101111101000100000000000001100 .
b10101111101000100000000000001100 l
b10111111110000000000000000101000 9
b10 =
1)
#500
0)
#510
b10000 W
b10000 c
b1000 Z
b1000 U
b10000 2
b10000 J
b1010000101100 k
b10 B
b10 e
b100 C
b100 ^
b100 d
0E
b10000 F
b10000 _
1%
b10111111110000000000000000101100 '
b10111111110000000000000000101100 4
b10111111110000000000000000101100 h
05
b10 <
b11101 `
b10 a
b10111111110000000000000000110000 S
b10 !
b10 ,
b10 L
b10 j
b1111 &
b1111 3
b1111 K
b1111 i
0X
b1100 G
b1100 [
10
b1100 Y
b10111111110000000000000000101100 /
b10111111110000000000000000101100 O
b10 #
b10 -
b10 A
b10 f
b10101111101000100000000000001100 ;
b11 =
b10101111101000100000000000001100 P
b10111111110000000000000000101100 T
1)
#520
0)
#530
b10000 k
b100111101111010000000000000100 :
b100111101111010000000000000100 ?
0%
1"
b10000 '
b10000 4
b10000 h
15
b1 <
b100111101111010000000000000100 $
b100111101111010000000000000100 .
b100111101111010000000000000100 l
b10111111110000000000000000101100 9
b10 =
1)
#540
0)
#550
b1000 W
b1000 c
b100 !
b100 ,
b100 L
b100 j
b10000 Z
b10000 U
b1000 2
b1000 J
b1010000110000 k
b100 B
b100 e
1E
b1000 F
b1000 _
1%
0"
b10111111110000000000000000110000 '
b10111111110000000000000000110000 4
b10111111110000000000000000110000 h
05
b10 <
b11101 a
b10111111110000000000000000110100 S
1X
b11101 V
b11101 b
b100 G
b100 [
00
b100 I
b100 ]
b100 Y
b10111111110000000000000000110000 /
b10111111110000000000000000110000 O
b100111101111010000000000000100 ;
b1 =
b100111101111010000000000000100 P
b10111111110000000000000000110000 T
1)
#560
0)
#570
b1000 k
b100100101001010000000000000001 :
b100100101001010000000000000001 ?
0%
b1000 '
b1000 4
b1000 h
15
b11 <
b100100101001010000000000000001 $
b100100101001010000000000000001 .
b100100101001010000000000000001 l
b10111111110000000000000000110000 9
b10 =
1)
#580
0)
#590
b1010000110100 k
1%
b10111111110000000000000000110100 '
b10111111110000000000000000110100 4
b10111111110000000000000000110100 h
05
b10 <
b101 `
b101 a
b10111111110000000000000000111000 S
b11 W
b11 c
b10 !
b10 ,
b10 L
b10 j
b101 V
b101 b
b1 G
b1 [
b100 Z
b100 U
b0 I
b0 ]
b1 Y
b0 2
b0 J
b10111111110000000000000000110100 /
b10111111110000000000000000110100 O
0E
b11 F
b11 _
b10 B
b10 e
b10 C
b10 ^
b10 d
b100100101001010000000000000001 ;
b11 =
b100100101001010000000000000001 P
b10111111110000000000000000110100 T
1)
#600
0)
#610
b0 k
b10100101111001111111111111001 :
b10100101111001111111111111001 ?
0%
b0 '
b0 4
b0 h
15
b11 <
b10100101111001111111111111001 $
b10100101111001111111111111001 .
b10100101111001111111111111001 l
b10111111110000000000000000110100 9
b10 =
1)
#620
0)
#630
b1010000111000 k
0E
1%
b10111111110000000000000000111000 '
b10111111110000000000000000111000 4
b10111111110000000000000000111000 h
05
b10 <
b11100 a
b10111111110000000000000000011100 S
b11100 W
b11100 c
b11001 !
b11001 ,
b11001 L
b11001 j
0X
b11100 V
b11100 b
b11001 G
b11001 [
b1001011 Z
b1001011 U
b11111 I
b11111 ]
b11111111111111111111111111111001 Y
b11100 2
b11100 J
b10111111110000000000000000111000 /
b10111111110000000000000000111000 O
b11100 F
b11100 _
b11001 B
b11001 e
b11 C
b11 ^
b11 d
b10100101111001111111111111001 ;
b11 =
b10100101111001111111111111001 P
b10111111110000000000000000111000 T
1)
#640
0)
#650
b11100 k
b100111110111100000000000000000 :
b100111110111100000000000000000 ?
0%
b11100 '
b11100 4
b11100 h
15
b11 <
b100111110111100000000000000000 $
b100111110111100000000000000000 .
b100111110111100000000000000000 l
b10111111110000000000000000111000 9
b10 =
1)
#660
0)
#670
1E
1@
b0 W
b0 c
b0 !
b0 ,
b0 L
b0 j
b0 Z
b0 U
b0 2
b0 J
b1010000011100 k
b0 B
b0 e
b0 C
b0 ^
b0 d
b0 F
b0 _
1%
b10111111110000000000000000011100 '
b10111111110000000000000000011100 4
b10111111110000000000000000011100 h
05
b10 <
b11110 `
b11110 a
b10111111110000000000000000100000 S
1X
b11110 V
b11110 b
b0 G
b0 [
b0 I
b0 ]
b0 Y
b10111111110000000000000000011100 /
b10111111110000000000000000011100 O
b100111110111100000000000000000 ;
b11 =
b100111110111100000000000000000 P
b10111111110000000000000000011100 T
1)
#680
0)
#690
b0 k
b10001111101000110000000000000100 :
b10001111101000110000000000000100 ?
0%
b0 '
b0 4
b0 h
15
b11 <
b10001111101000110000000000000100 $
b10001111101000110000000000000100 .
b10001111101000110000000000000100 l
b10111111110000000000000000011100 9
b10 =
1)
#700
0)
#710
0@
b1 !
b1 ,
b1 L
b1 j
b1000 Z
b1000 U
b1000 I
b1000 ]
b1100 2
b1100 J
b1010000100000 k
b1 B
b1 e
b1000 C
b1000 ^
b1000 d
0E
b1100 F
b1100 _
1%
b10111111110000000000000000100000 '
b10111111110000000000000000100000 4
b10111111110000000000000000100000 h
05
b10 <
b11101 `
b11 a
b10111111110000000000000000100100 S
b1 W
b1 c
b11 V
b11 b
b100 G
b100 [
11
b100 Y
b10111111110000000000000000100000 /
b10111111110000000000000000100000 O
b10001111101000110000000000000100 ;
b11 =
b10001111101000110000000000000100 P
b10111111110000000000000000100000 T
1)
#720
0)
#730
b1100 k
b10001111101001000000000000001000 :
b10001111101001000000000000001000 ?
b1100 '
b1100 4
b1100 h
b0 <
b10001111101001000000000000001000 $
b10001111101001000000000000001000 .
b10001111101001000000000000001000 l
b10111111110000000000000000100000 9
b10 =
1)
#740
0)
#750
0%
15
b11 <
b10001111101001000000000000001000 ;
b0 =
b1 $
b1 .
b1 l
1)
#760
0)
#770
b10000 2
b10000 J
b1010000100100 k
1E
b10000 F
b10000 _
b10111111110000000000000000100100 '
b10111111110000000000000000100100 4
b10111111110000000000000000100100 h
b100 a
b10111111110000000000000000101000 S
b100 V
b100 b
b1000 G
b1000 [
b0 I
b0 ]
b1000 Y
b10111111110000000000000000100100 /
b10111111110000000000000000100100 O
1%
05
b10 <
b10001111101001000000000000001000 P
b10111111110000000000000000100100 T
b11 =
1)
#780
0)
#790
b10000 k
b11001000001000000100001 :
b11001000001000000100001 ?
b10000 '
b10000 4
b10000 h
b0 <
b10111111110000000000000000100100 9
b10 =
b11001000001000000100001 $
b11001000001000000100001 .
b11001000001000000100001 l
1)
#800
0)
#810
b10 W
b10 c
b10 6
b10 >
0%
15
b11 <
b10 $
b10 .
b10 l
b11001000001000000100001 ;
b0 =
1)
#820
0)
#830
b0 2
b0 J
b1010000101000 k
b1 C
b1 ^
b1 d
0E
b11 F
b11 _
1%
b10111111110000000000000000101000 '
b10111111110000000000000000101000 4
b10111111110000000000000000101000 h
05
b10 <
b11 `
b10111111110000000000000000101100 S
b11 W
b11 c
b10 V
b10 b
b10 G
b10 [
b0 !
b0 ,
b0 L
b0 j
b0 &
b0 3
b0 K
b0 i
01
b10 Z
b10 U
b1000000100001 Y
b10111111110000000000000000101000 /
b10111111110000000000000000101000 O
b10 B
b10 e
b10 7
b11 =
b11001000001000000100001 P
b10111111110000000000000000101000 T
1)
#840
0)
#850
b0 k
b10101111101000100000000000001100 :
b10101111101000100000000000001100 ?
0%
b0 '
b0 4
b0 h
15
b11 <
b10101111101000100000000000001100 $
b10101111101000100000000000001100 .
b10101111101000100000000000001100 l
b10111111110000000000000000101000 9
b10 =
1)
#860
0)
#870
b10100 W
b10100 c
b11000 Z
b11000 U
b10100 2
b10100 J
b1010000101100 k
b11 B
b11 e
b1000 C
b1000 ^
b1000 d
b10100 F
b10100 _
1%
b10111111110000000000000000101100 '
b10111111110000000000000000101100 4
b10111111110000000000000000101100 h
05
b10 <
b11101 `
b10 a
b10111111110000000000000000110000 S
b11 !
b11 ,
b11 L
b11 j
b1111 &
b1111 3
b1111 K
b1111 i
0X
b1100 G
b1100 [
10
b1100 Y
b10111111110000000000000000101100 /
b10111111110000000000000000101100 O
b11 #
b11 -
b11 A
b11 f
b10101111101000100000000000001100 ;
b11 =
b10101111101000100000000000001100 P
b10111111110000000000000000101100 T
1)
#880
0)
#890
b10100 k
b100111101111010000000000000100 :
b100111101111010000000000000100 ?
0%
1"
b10100 '
b10100 4
b10100 h
15
b1 <
b100111101111010000000000000100 $
b100111101111010000000000000100 .
b100111101111010000000000000100 l
b10111111110000000000000000101100 9
b10 =
1)
#900
0)
#910
b1100 W
b1100 c
b1000 !
b1000 ,
b1000 L
b1000 j
b1000000 Z
b1000000 U
b1100 2
b1100 J
b1010000110000 k
b1000 B
b1000 e
b1100 F
b1100 _
1%
0"
b10111111110000000000000000110000 '
b10111111110000000000000000110000 4
b10111111110000000000000000110000 h
05
b10 <
b11101 a
b10111111110000000000000000110100 S
1X
b11101 V
b11101 b
b100 G
b100 [
00
b1000 I
b1000 ]
b100 Y
b10111111110000000000000000110000 /
b10111111110000000000000000110000 O
b100111101111010000000000000100 ;
b1 =
b100111101111010000000000000100 P
b10111111110000000000000000110000 T
1)
#920
0)
#930
b1100 k
b100100101001010000000000000001 :
b100100101001010000000000000001 ?
0%
b1100 '
b1100 4
b1100 h
15
b11 <
b100100101001010000000000000001 $
b100100101001010000000000000001 .
b100100101001010000000000000001 l
b10111111110000000000000000110000 9
b10 =
1)
#940
0)
#950
b1010000110100 k
1%
b10111111110000000000000000110100 '
b10111111110000000000000000110100 4
b10111111110000000000000000110100 h
05
b10 <
b101 `
b101 a
b10111111110000000000000000111000 S
b100 W
b100 c
b11 !
b11 ,
b11 L
b11 j
b101 V
b101 b
b1 G
b1 [
b1001 Z
b1001 U
b0 I
b0 ]
b1 Y
b100 2
b100 J
b10111111110000000000000000110100 /
b10111111110000000000000000110100 O
b100 F
b100 _
b11 B
b11 e
b11 C
b11 ^
b11 d
b100100101001010000000000000001 ;
b11 =
b100100101001010000000000000001 P
b10111111110000000000000000110100 T
1)
#960
0)
#970
b100 k
b10100101111001111111111111001 :
b10100101111001111111111111001 ?
0%
b100 '
b100 4
b100 h
15
b11 <
b10100101111001111111111111001 $
b10100101111001111111111111001 .
b10100101111001111111111111001 l
b10111111110000000000000000110100 9
b10 =
1)
#980
0)
#990
b11100 2
b11100 J
b1010000111000 k
0E
1%
b10111111110000000000000000111000 '
b10111111110000000000000000111000 4
b10111111110000000000000000111000 h
05
b10 <
b11100 a
b10111111110000000000000000011100 S
b11101 W
b11101 c
b11001 !
b11001 ,
b11001 L
b11001 j
0X
b11100 V
b11100 b
b11001 G
b11001 [
b1100100 Z
b1100100 U
b11111 I
b11111 ]
b11111111111111111111111111111001 Y
b10111111110000000000000000111000 /
b10111111110000000000000000111000 O
b11101 F
b11101 _
b11001 B
b11001 e
b100 C
b100 ^
b100 d
b10100101111001111111111111001 ;
b11 =
b10100101111001111111111111001 P
b10111111110000000000000000111000 T
1)
#1000
0)
#1010
b11100 k
b100111110111100000000000000000 :
b100111110111100000000000000000 ?
0%
b11100 '
b11100 4
b11100 h
15
b11 <
b100111110111100000000000000000 $
b100111110111100000000000000000 .
b100111110111100000000000000000 l
b10111111110000000000000000111000 9
b10 =
1)
#1020
0)
#1030
1E
1@
b0 W
b0 c
b0 !
b0 ,
b0 L
b0 j
b0 Z
b0 U
b0 2
b0 J
b1010000011100 k
b0 B
b0 e
b0 C
b0 ^
b0 d
b0 F
b0 _
1%
b10111111110000000000000000011100 '
b10111111110000000000000000011100 4
b10111111110000000000000000011100 h
05
b10 <
b11110 `
b11110 a
b10111111110000000000000000100000 S
1X
b11110 V
b11110 b
b0 G
b0 [
b0 I
b0 ]
b0 Y
b10111111110000000000000000011100 /
b10111111110000000000000000011100 O
b100111110111100000000000000000 ;
b11 =
b100111110111100000000000000000 P
b10111111110000000000000000011100 T
1)
#1040
0)
#1050
b0 k
b10001111101000110000000000000100 :
b10001111101000110000000000000100 ?
0%
b0 '
b0 4
b0 h
15
b11 <
b10001111101000110000000000000100 $
b10001111101000110000000000000100 .
b10001111101000110000000000000100 l
b10111111110000000000000000011100 9
b10 =
1)
#1060
0)
#1070
0@
b1 !
b1 ,
b1 L
b1 j
b1100 Z
b1100 U
b1100 I
b1100 ]
b10000 2
b10000 J
b1010000100000 k
b1 B
b1 e
b1100 C
b1100 ^
b1100 d
0E
b10000 F
b10000 _
1%
b10111111110000000000000000100000 '
b10111111110000000000000000100000 4
b10111111110000000000000000100000 h
05
b10 <
b11101 `
b11 a
b10111111110000000000000000100100 S
b10 W
b10 c
b11 V
b11 b
b100 G
b100 [
11
b100 Y
b10111111110000000000000000100000 /
b10111111110000000000000000100000 O
b10001111101000110000000000000100 ;
b11 =
b10001111101000110000000000000100 P
b10111111110000000000000000100000 T
1)
#1080
0)
#1090
b10000 k
b10001111101001000000000000001000 :
b10001111101001000000000000001000 ?
b10000 '
b10000 4
b10000 h
b0 <
b10001111101001000000000000001000 $
b10001111101001000000000000001000 .
b10001111101001000000000000001000 l
b10111111110000000000000000100000 9
b10 =
1)
#1100
0)
#1110
0%
15
b11 <
b10001111101001000000000000001000 ;
b0 =
b10 $
b10 .
b10 l
1)
#1120
0)
#1130
b1010000100100 k
b10 !
b10 ,
b10 L
b10 j
b11000 Z
b11000 U
b10100 2
b10100 J
b10111111110000000000000000100100 '
b10111111110000000000000000100100 4
b10111111110000000000000000100100 h
b10100 F
b10100 _
b10 B
b10 e
b100 a
b10111111110000000000000000101000 S
b100 V
b100 b
b1000 G
b1000 [
b0 I
b0 ]
b1000 Y
b10111111110000000000000000100100 /
b10111111110000000000000000100100 O
1%
05
b10 <
b10001111101001000000000000001000 P
b10111111110000000000000000100100 T
b11 =
1)
#1140
0)
#1150
b10100 k
b11001000001000000100001 :
b11001000001000000100001 ?
b10100 '
b10100 4
b10100 h
b0 <
b10111111110000000000000000100100 9
b10 =
b11001000001000000100001 $
b11001000001000000100001 .
b11001000001000000100001 l
1)
#1160
0)
#1170
b11 W
b11 c
b11 6
b11 >
0%
15
b11 <
b11 $
b11 .
b11 l
b11001000001000000100001 ;
b0 =
1)
#1180
0)
#1190
b100 2
b100 J
b1010000101000 k
b10 C
b10 ^
b10 d
b101 F
b101 _
1%
b10111111110000000000000000101000 '
b10111111110000000000000000101000 4
b10111111110000000000000000101000 h
05
b10 <
b11 `
b10111111110000000000000000101100 S
b101 W
b101 c
b10 V
b10 b
b11 G
b11 [
b0 !
b0 ,
b0 L
b0 j
b0 &
b0 3
b0 K
b0 i
01
b110 Z
b110 U
b1000000100001 Y
b10111111110000000000000000101000 /
b10111111110000000000000000101000 O
b11 B
b11 e
b11 7
b11 =
b11001000001000000100001 P
b10111111110000000000000000101000 T
1)
#1200
0)
#1210
b100 k
b10101111101000100000000000001100 :
b10101111101000100000000000001100 ?
0%
b100 '
b100 4
b100 h
15
b11 <
b10101111101000100000000000001100 $
b10101111101000100000000000001100 .
b10101111101000100000000000001100 l
b10111111110000000000000000101000 9
b10 =
1)
#1220
0)
