mips_cpu_bus_tb.vcd
$date
	Mon Dec 21 10:50:50 2020
$end
$version
	Icarus Verilog
$end
$timescale
	1s
$end
$scope module mips_cpu_bus_tb $end
$var wire 32 ! writedata [31:0] $end
$var wire 1 " write $end
$var wire 32 # register_v0 [31:0] $end
$var wire 32 $ readdata [31:0] $end
$var wire 1 % read $end
$var wire 4 & byteenable [3:0] $end
$var wire 32 ' address [31:0] $end
$var wire 1 ( active $end
$var reg 1 ) clk $end
$var reg 1 * reset $end
$var reg 1 + waitrequest $end
$var reg 2 , waitrequest_counter [1:0] $end
$scope module cpuInst $end
$var wire 1 ) clk $end
$var wire 1 * reset $end
$var wire 1 + waitrequest $end
$var wire 32 - writedata [31:0] $end
$var wire 32 . register_v0 [31:0] $end
$var wire 32 / readdata [31:0] $end
$var wire 32 0 instr_addr [31:0] $end
$var wire 1 1 data_write $end
$var wire 1 2 data_read_en $end
$var wire 32 3 data_addr [31:0] $end
$var wire 4 4 byteenable [3:0] $end
$var wire 1 ( active $end
$var reg 32 5 address [31:0] $end
$var reg 1 6 clk_enable $end
$var reg 32 7 data_read [31:0] $end
$var reg 32 8 data_reg [31:0] $end
$var reg 1 9 delayed $end
$var reg 32 : instr_addr_reg [31:0] $end
$var reg 32 ; instr_read [31:0] $end
$var reg 32 < instr_reg [31:0] $end
$var reg 2 = next_state [1:0] $end
$var reg 1 % read $end
$var reg 2 > state [1:0] $end
$var reg 1 " write $end
$scope module harvard_cpu $end
$var wire 1 ) clk $end
$var wire 1 6 clk_enable $end
$var wire 32 ? data_readdata [31:0] $end
$var wire 32 @ instr_readdata [31:0] $end
$var wire 1 * reset $end
$var wire 1 A zero $end
$var wire 32 B register_v0 [31:0] $end
$var wire 32 C read_data_b [31:0] $end
$var wire 32 D read_data_a [31:0] $end
$var wire 1 E negative $end
$var wire 1 F equal $end
$var wire 32 G alu_result [31:0] $end
$var reg 1 ( active $end
$var reg 32 H alu_b [31:0] $end
$var reg 4 I alu_control [3:0] $end
$var reg 5 J alu_shift_amt [4:0] $end
$var reg 32 K data_address [31:0] $end
$var reg 4 L data_byteenable [3:0] $end
$var reg 1 2 data_read $end
$var reg 1 1 data_write $end
$var reg 32 M data_writedata [31:0] $end
$var reg 32 N hi_in [31:0] $end
$var reg 32 O hi_reg [31:0] $end
$var reg 32 P instr_address [31:0] $end
$var reg 32 Q ir_reg [31:0] $end
$var reg 32 R lo_in [31:0] $end
$var reg 32 S lo_reg [31:0] $end
$var reg 32 T pc_in [31:0] $end
$var reg 32 U pc_reg [31:0] $end
$var reg 64 V product [63:0] $end
$var reg 5 W regfile_write_addr [4:0] $end
$var reg 32 X regfile_write_data [31:0] $end
$var reg 1 Y regfile_write_enable $end
$var reg 32 Z sign_extended_immediate [31:0] $end
$var reg 64 [ u_product [63:0] $end
$scope module alu $end
$var wire 32 \ alu_b [31:0] $end
$var wire 4 ] alu_control [3:0] $end
$var wire 5 ^ alu_shift_amt [4:0] $end
$var wire 32 _ alu_a [31:0] $end
$var reg 32 ` alu_out [31:0] $end
$var reg 1 F equal $end
$var reg 1 E negative $end
$var reg 1 A zero $end
$upscope $end
$scope module reg_file $end
$var wire 1 ) clk $end
$var wire 1 6 clk_enable $end
$var wire 5 a read_addr_a [4:0] $end
$var wire 5 b read_addr_b [4:0] $end
$var wire 5 c regfile_write_addr [4:0] $end
$var wire 32 d regfile_write_data [31:0] $end
$var wire 1 Y regfile_write_enable $end
$var wire 1 * reset $end
$var reg 32 e read_data_a [31:0] $end
$var reg 32 f read_data_b [31:0] $end
$var reg 32 g register_v0 [31:0] $end
$var integer 32 h i [31:0] $end
$upscope $end
$upscope $end
$upscope $end
$scope module ramInst $end
$var wire 32 i address [31:0] $end
$var wire 4 j byteenable [3:0] $end
$var wire 1 ) clk $end
$var wire 1 % read $end
$var wire 1 + waitrequest $end
$var wire 1 " write $end
$var wire 32 k writedata [31:0] $end
$var reg 13 l mapped_address [12:0] $end
$var reg 32 m readdata [31:0] $end
$var reg 1 n supress_read $end
$scope begin $unm_blk_1 $end
$var integer 32 o i [31:0] $end
$upscope $end
$upscope $end
$upscope $end
$enddefinitions $end
#0
$dumpvars
b10000000000000 o
0n
bx m
bx l
bx k
bx j
bx i
bx h
bx g
bx f
bx e
bx d
bx c
bx b
bx a
bx `
bx _
bx ^
bx ]
bx \
bx [
bx Z
xY
bx X
bx W
bx V
bx U
bx T
bx S
bx R
bx Q
bx P
bx O
bx N
bx M
bx L
bx K
bx J
bx I
bx H
bx G
xF
xE
bx D
bx C
bx B
xA
bx @
bx ?
bx >
b11 =
bx <
bx ;
bx :
x9
bx 8
bx 7
16
bx 5
bx 4
bx 3
x2
x1
bx 0
bx /
bx .
bx -
b0 ,
0+
0*
0)
x(
bx '
bx &
0%
bx $
bx #
x"
bx !
$end
#10
bx00 l
bx00 '
bx00 5
bx00 i
b0 !
b0 -
b0 M
b0 k
b1111 &
b1111 4
b1111 L
b1111 j
b0 I
b0 ]
b0 [
b0 V
bx00 3
bx00 K
0"
0E
1A
b0 C
b0 f
b0 D
b0 _
b0 e
b0 #
b0 .
b0 B
b0 g
09
b11 >
1*
1)
#20
0)
#30
b0 X
b0 d
b0 3
b0 K
1F
b0 G
b0 `
b0 H
b0 \
b1010000000000 l
b1 ,
b0 7
b0 ?
b0 ;
b0 @
1%
b10111111110000000000000000000000 '
b10111111110000000000000000000000 5
b10111111110000000000000000000000 i
06
b10 =
b0 a
b0 b
b111 I
b111 ]
b0 R
b0 N
b10111111110000000000000000000100 T
1Y
b0 W
b0 c
b0 &
b0 4
b0 L
b0 j
02
01
b0 [
b0 V
b0 J
b0 ^
b0 Z
b10111111110000000000000000000000 0
b10111111110000000000000000000000 P
0E
1A
b0 C
b0 f
b0 D
b0 _
b0 e
0*
b0 :
b0 8
b0 <
1(
b0 S
b0 O
b0 Q
b10111111110000000000000000000000 U
b100000 h
1)
#40
0)
#50
b0 l
b100111100111000000000000000100 ;
b100111100111000000000000000100 @
0%
b0 '
b0 5
b0 i
16
b11 =
b100111100111000000000000000100 $
b100111100111000000000000000100 /
b100111100111000000000000000100 m
b10111111110000000000000000000000 :
b10 >
1)
#60
0)
#70
b100 X
b100 d
b100 3
b100 K
b1010000000100 l
b10 ,
0F
b100 G
b100 `
1%
b10111111110000000000000000000100 '
b10111111110000000000000000000100 5
b10111111110000000000000000000100 i
06
b10 =
b11100 a
b11100 b
b10111111110000000000000000001000 T
b1111 &
b1111 4
b1111 L
b1111 j
b0 I
b0 ]
b11100 W
b11100 c
b100 H
b100 \
b100 Z
b10111111110000000000000000000100 0
b10111111110000000000000000000100 P
b100111100111000000000000000100 <
b11 >
b100111100111000000000000000100 Q
b10111111110000000000000000000100 U
1)
#80
0)
#90
b100 l
b10001111100000110000000000000000 ;
b10001111100000110000000000000000 @
0%
b100 '
b100 5
b100 i
16
b11 =
b10001111100000110000000000000000 $
b10001111100000110000000000000000 /
b10001111100000110000000000000000 m
b10111111110000000000000000000100 :
b10 >
1)
#100
0)
#110
b1010000001000 l
b11 ,
1%
b10111111110000000000000000001000 '
b10111111110000000000000000001000 5
b10111111110000000000000000001000 i
06
b10 =
b11 b
b10111111110000000000000000001100 T
b0 X
b0 d
b0 !
b0 -
b0 M
b0 k
b11 W
b11 c
b0 H
b0 \
12
b0 [
b0 V
b0 Z
b100 3
b100 K
b10111111110000000000000000001000 0
b10111111110000000000000000001000 P
0F
0A
b100 G
b100 `
b0 C
b0 f
b100 D
b100 _
b100 e
b10001111100000110000000000000000 <
b11 >
b10001111100000110000000000000000 Q
b10111111110000000000000000001000 U
1)
#120
0)
#130
b100 l
b0 ,
b11000011000000000000000000100 ;
b11000011000000000000000000100 @
b100 '
b100 5
b100 i
b0 =
b11000011000000000000000000100 $
b11000011000000000000000000100 /
b11000011000000000000000000100 m
b10111111110000000000000000001000 :
b10 >
1)
#140
0)
#150
b1000100 X
b1000100 d
b1000100 7
b1000100 ?
0%
16
b11 =
b11000011000000000000000000100 <
b0 >
b1000100 $
b1000100 /
b1000100 m
1)
#160
0)
#170
b1010000001100 l
b1001000 3
b1001000 K
b10111111110000000000000000001100 '
b10111111110000000000000000001100 5
b10111111110000000000000000001100 i
b10 ,
b1001000 G
b1001000 `
b1000100 D
b1000100 _
b1000100 e
b11 a
b0 b
b10111111110000000000000000010000 T
b1001000 X
b1001000 d
0Y
b0 W
b0 c
b100 H
b100 \
02
b100 J
b100 ^
b100 Z
b10111111110000000000000000001100 0
b10111111110000000000000000001100 P
1%
06
b10 =
b11000011000000000000000000100 Q
b10111111110000000000000000001100 U
b1000100 8
b11 >
1)
#180
0)
#190
b1001000 l
b100111100111000000000000000100 ;
b100111100111000000000000000100 @
0%
b1001000 '
b1001000 5
b1001000 i
16
b11 =
b10111111110000000000000000001100 :
b10 >
b100111100111000000000000000100 $
b100111100111000000000000000100 /
b100111100111000000000000000100 m
1)
#200
0)
#210
b1000 X
b1000 d
b100 !
b100 -
b100 M
b100 k
b10000 [
b10000 V
b1000 3
b1000 K
b1010000010000 l
b11 ,
1F
b1000 G
b1000 `
b100 C
b100 f
b100 D
b100 _
b100 e
1%
b10111111110000000000000000010000 '
b10111111110000000000000000010000 5
b10111111110000000000000000010000 i
06
b10 =
b11100 a
b11100 b
b10111111110000000000000000010100 T
1Y
b11100 W
b11100 c
b10111111110000000000000000010000 0
b10111111110000000000000000010000 P
b100111100111000000000000000100 Q
b10111111110000000000000000010000 U
b100111100111000000000000000100 <
b11 >
1)
#220
0)
#230
b1000 l
b100100010000100000000000000001 ;
b100100010000100000000000000001 @
0%
b1000 '
b1000 5
b1000 i
16
b11 =
b10111111110000000000000000010000 :
b10 >
b100100010000100000000000000001 $
b100100010000100000000000000001 /
b100100010000100000000000000001 m
1)
#240
0)
#250
b1010000010100 l
b0 ,
b1 X
b1 d
b0 !
b0 -
b0 M
b0 k
b0 [
b0 V
b0 3
b0 K
1%
b10111111110000000000000000010100 '
b10111111110000000000000000010100 5
b10111111110000000000000000010100 i
06
b10 =
0F
1A
b1 G
b1 `
b0 C
b0 f
b0 D
b0 _
b0 e
b10 a
b10 b
b10111111110000000000000000011000 T
b10 W
b10 c
b1 H
b1 \
b0 J
b0 ^
b1 Z
b10111111110000000000000000010100 0
b10111111110000000000000000010100 P
b100100010000100000000000000001 Q
b10111111110000000000000000010100 U
b100100010000100000000000000001 <
b11 >
1)
#260
0)
#270
b0 l
b100011000011111111111111011 ;
b100011000011111111111111011 @
0%
b0 '
b0 5
b0 i
16
b11 =
b10111111110000000000000000010100 :
b10 >
b100011000011111111111111011 $
b100011000011111111111111011 /
b100011000011111111111111011 m
1)
#280
0)
#290
b1010000011000 l
b1 ,
b1000100 3
b1000100 K
1%
b10111111110000000000000000011000 '
b10111111110000000000000000011000 5
b10111111110000000000000000011000 i
06
b10 =
0A
b1000100 G
b1000100 `
b1000100 D
b1000100 _
b1000100 e
b1 #
b1 .
b1 B
b1 g
b11 a
b1 b
b10111111110000000000000000000100 T
0Y
b10111111110000000000000000011100 X
b10111111110000000000000000011100 d
b11111 W
b11111 c
b0 H
b0 \
b0 &
b0 4
b0 L
b0 j
b11111 J
b11111 ^
b11111111111111111111111111111011 Z
b10111111110000000000000000011000 0
b10111111110000000000000000011000 P
b100011000011111111111111011 Q
b10111111110000000000000000011000 U
b100011000011111111111111011 <
b11 >
1)
#300
0)
#310
b1000100 l
b100111110111100000000000000000 ;
b100111110111100000000000000000 @
0%
b1000100 '
b1000100 5
b1000100 i
16
b11 =
b10111111110000000000000000011000 :
b10 >
b100111110111100000000000000000 $
b100111110111100000000000000000 /
b100111110111100000000000000000 m
1)
#320
0)
#330
b0 3
b0 K
1F
1A
b0 G
b0 `
b1010000000100 l
b10 ,
b0 D
b0 _
b0 e
1%
b10111111110000000000000000000100 '
b10111111110000000000000000000100 5
b10111111110000000000000000000100 i
06
b10 =
b11110 a
b11110 b
b10111111110000000000000000001000 T
b0 X
b0 d
b1111 &
b1111 4
b1111 L
b1111 j
1Y
b11110 W
b11110 c
b0 J
b0 ^
b0 Z
b10111111110000000000000000000100 0
b10111111110000000000000000000100 P
b100111110111100000000000000000 Q
b10111111110000000000000000000100 U
b100111110111100000000000000000 <
b11 >
1)
#340
0)
#350
b0 l
b10001111100000110000000000000000 ;
b10001111100000110000000000000000 @
0%
b0 '
b0 5
b0 i
16
b11 =
b10111111110000000000000000000100 :
b10 >
b10001111100000110000000000000000 $
b10001111100000110000000000000000 /
b10001111100000110000000000000000 m
1)
#360
0)
#370
b1000100 !
b1000100 -
b1000100 M
b1000100 k
b1000100000 [
b1000100000 V
b1000 3
b1000 K
b1010000001000 l
b11 ,
0F
0A
b1000 G
b1000 `
b1000100 C
b1000100 f
b1000 D
b1000 _
b1000 e
1%
b10111111110000000000000000001000 '
b10111111110000000000000000001000 5
b10111111110000000000000000001000 i
06
b10 =
b11100 a
b11 b
b10111111110000000000000000001100 T
b1000100 X
b1000100 d
b11 W
b11 c
12
b10111111110000000000000000001000 0
b10111111110000000000000000001000 P
b10001111100000110000000000000000 Q
b10111111110000000000000000001000 U
b10001111100000110000000000000000 <
b11 >
1)
#380
0)
#390
b1000 l
b0 ,
b11000011000000000000000000100 ;
b11000011000000000000000000100 @
b1000 '
b1000 5
b1000 i
b0 =
b10111111110000000000000000001000 :
b10 >
b11000011000000000000000000100 $
b11000011000000000000000000100 /
b11000011000000000000000000100 m
1)
#400
0)
#410
b1010100 X
b1010100 d
b1010100 7
b1010100 ?
0%
16
b11 =
b1010100 $
b1010100 /
b1010100 m
b11000011000000000000000000100 <
b0 >
1)
#420
0)
#430
b1011000 3
b1011000 K
b1010000001100 l
b1 ,
b1010100 D
b1010100 _
b1010100 e
b1011000 G
b1011000 `
1%
b10111111110000000000000000001100 '
b10111111110000000000000000001100 5
b10111111110000000000000000001100 i
06
b10 =
b11 a
b0 b
b10111111110000000000000000010000 T
b1011000 X
b1011000 d
b0 !
b0 -
b0 M
b0 k
0Y
b0 W
b0 c
b100 H
b100 \
02
b0 [
b0 V
b10100 J
b10100 ^
b100 Z
b10111111110000000000000000001100 0
b10111111110000000000000000001100 P
b0 C
b0 f
b1010100 8
b11 >
b11000011000000000000000000100 Q
b10111111110000000000000000001100 U
1)
#440
0)
#450
b1011000 l
b100111100111000000000000000100 ;
b100111100111000000000000000100 @
0%
b1011000 '
b1011000 5
b1011000 i
16
b11 =
b100111100111000000000000000100 $
b100111100111000000000000000100 /
b100111100111000000000000000100 m
b10111111110000000000000000001100 :
b10 >
1)
#460
0)
#470
b1100 X
b1100 d
b1000 !
b1000 -
b1000 M
b1000 k
b1000000 [
b1000000 V
b1000 J
b1000 ^
b1100 3
b1100 K
b1010000010000 l
b10 ,
b1100 G
b1100 `
b1000 C
b1000 f
b1000 D
b1000 _
b1000 e
1%
b10111111110000000000000000010000 '
b10111111110000000000000000010000 5
b10111111110000000000000000010000 i
06
b10 =
b11100 a
b11100 b
b10111111110000000000000000010100 T
1Y
b11100 W
b11100 c
b10111111110000000000000000010000 0
b10111111110000000000000000010000 P
b100111100111000000000000000100 <
b11 >
b100111100111000000000000000100 Q
b10111111110000000000000000010000 U
1)
#480
0)
#490
b1100 l
b100100010000100000000000000001 ;
b100100010000100000000000000001 @
0%
b1100 '
b1100 5
b1100 i
16
b11 =
b100100010000100000000000000001 $
b100100010000100000000000000001 /
b100100010000100000000000000001 m
b10111111110000000000000000010000 :
b10 >
1)
#500
0)
#510
1F
b1010000010100 l
b11 ,
1%
b10111111110000000000000000010100 '
b10111111110000000000000000010100 5
b10111111110000000000000000010100 i
06
b10 =
b10 a
b10 b
b10111111110000000000000000011000 T
b10 X
b10 d
b1 !
b1 -
b1 M
b1 k
b10 W
b10 c
b1 H
b1 \
b1 [
b1 V
b0 J
b0 ^
b1 Z
b0 3
b0 K
b10111111110000000000000000010100 0
b10111111110000000000000000010100 P
b10 G
b10 `
b1 C
b1 f
b1 D
b1 _
b1 e
b100100010000100000000000000001 <
b11 >
b100100010000100000000000000001 Q
b10111111110000000000000000010100 U
1)
#520
0)
#530
b0 l
b100011000011111111111111011 ;
b100011000011111111111111011 @
0%
b0 '
b0 5
b0 i
16
b11 =
b100011000011111111111111011 $
b100011000011111111111111011 /
b100011000011111111111111011 m
b10111111110000000000000000010100 :
b10 >
1)
#540
0)
#550
b1010100 3
b1010100 K
b1010000011000 l
b0 ,
1%
b10111111110000000000000000011000 '
b10111111110000000000000000011000 5
b10111111110000000000000000011000 i
06
b10 =
b11 a
b1 b
b10111111110000000000000000000100 T
0Y
b10111111110000000000000000011100 X
b10111111110000000000000000011100 d
b11111 W
b11111 c
b0 H
b0 \
b0 !
b0 -
b0 M
b0 k
b0 &
b0 4
b0 L
b0 j
b0 [
b0 V
b11111 J
b11111 ^
b11111111111111111111111111111011 Z
b10111111110000000000000000011000 0
b10111111110000000000000000011000 P
0F
b1010100 G
b1010100 `
b0 C
b0 f
b1010100 D
b1010100 _
b1010100 e
b10 #
b10 .
b10 B
b10 g
b100011000011111111111111011 <
b11 >
b100011000011111111111111011 Q
b10111111110000000000000000011000 U
1)
#560
0)
#570
b1010100 l
b100111110111100000000000000000 ;
b100111110111100000000000000000 @
0%
b1010100 '
b1010100 5
b1010100 i
16
b11 =
b100111110111100000000000000000 $
b100111110111100000000000000000 /
b100111110111100000000000000000 m
b10111111110000000000000000011000 :
b10 >
1)
#580
0)
#590
b0 3
b0 K
1F
1A
b0 G
b0 `
b1010000000100 l
b1 ,
b0 D
b0 _
b0 e
1%
b10111111110000000000000000000100 '
b10111111110000000000000000000100 5
b10111111110000000000000000000100 i
06
b10 =
b11110 a
b11110 b
b10111111110000000000000000001000 T
b0 X
b0 d
b1111 &
b1111 4
b1111 L
b1111 j
1Y
b11110 W
b11110 c
b0 J
b0 ^
b0 Z
b10111111110000000000000000000100 0
b10111111110000000000000000000100 P
b100111110111100000000000000000 <
b11 >
b100111110111100000000000000000 Q
b10111111110000000000000000000100 U
1)
#600
0)
#610
b0 l
b10001111100000110000000000000000 ;
b10001111100000110000000000000000 @
0%
b0 '
b0 5
b0 i
16
b11 =
b10001111100000110000000000000000 $
b10001111100000110000000000000000 /
b10001111100000110000000000000000 m
b10111111110000000000000000000100 :
b10 >
1)
#620
0)
#630
b1010100 !
b1010100 -
b1010100 M
b1010100 k
b1111110000 [
b1111110000 V
b1100 3
b1100 K
b1010000001000 l
b10 ,
0F
0A
b1100 G
b1100 `
b1010100 C
b1010100 f
b1100 D
b1100 _
b1100 e
1%
b10111111110000000000000000001000 '
b10111111110000000000000000001000 5
b10111111110000000000000000001000 i
06
b10 =
b11100 a
b11 b
b10111111110000000000000000001100 T
b1010100 X
b1010100 d
b11 W
b11 c
12
b10111111110000000000000000001000 0
b10111111110000000000000000001000 P
b10001111100000110000000000000000 <
b11 >
b10001111100000110000000000000000 Q
b10111111110000000000000000001000 U
1)
#640
0)
#650
b1100 l
b11 ,
b11000011000000000000000000100 ;
b11000011000000000000000000100 @
b1100 '
b1100 5
b1100 i
b0 =
b11000011000000000000000000100 $
b11000011000000000000000000100 /
b11000011000000000000000000100 m
b10111111110000000000000000001000 :
b10 >
1)
#660
0)
#670
b100000 X
b100000 d
b100000 7
b100000 ?
0%
16
b11 =
b11000011000000000000000000100 <
b0 >
b100000 $
b100000 /
b100000 m
1)
#680
0)
#690
b1010000001100 l
b0 !
b0 -
b0 M
b0 k
b0 [
b0 V
b100100 3
b100100 K
b10111111110000000000000000001100 '
b10111111110000000000000000001100 5
b10111111110000000000000000001100 i
b1 ,
b100100 G
b100100 `
b0 C
b0 f
b100000 D
b100000 _
b100000 e
b11 a
b0 b
b10111111110000000000000000010000 T
b100100 X
b100100 d
0Y
b0 W
b0 c
b100 H
b100 \
02
b0 J
b0 ^
b100 Z
b10111111110000000000000000001100 0
b10111111110000000000000000001100 P
1%
06
b10 =
b11000011000000000000000000100 Q
b10111111110000000000000000001100 U
b100000 8
b11 >
1)
#700
0)
#710
b100100 l
b100111100111000000000000000100 ;
b100111100111000000000000000100 @
0%
b100100 '
b100100 5
b100100 i
16
b11 =
b10111111110000000000000000001100 :
b10 >
b100111100111000000000000000100 $
b100111100111000000000000000100 /
b100111100111000000000000000100 m
1)
#720
0)
#730
b10000 X
b10000 d
b1100 !
b1100 -
b1100 M
b1100 k
b10010000 [
b10010000 V
b1100 J
b1100 ^
b10000 3
b10000 K
b1010000010000 l
b10 ,
b10000 G
b10000 `
b1100 C
b1100 f
b1100 D
b1100 _
b1100 e
1%
b10111111110000000000000000010000 '
b10111111110000000000000000010000 5
b10111111110000000000000000010000 i
06
b10 =
b11100 a
b11100 b
b10111111110000000000000000010100 T
1Y
b11100 W
b11100 c
b10111111110000000000000000010000 0
b10111111110000000000000000010000 P
b100111100111000000000000000100 Q
b10111111110000000000000000010000 U
b100111100111000000000000000100 <
b11 >
1)
#740
0)
#750
b10000 l
b100100010000100000000000000001 ;
b100100010000100000000000000001 @
0%
b10000 '
b10000 5
b10000 i
16
b11 =
b10111111110000000000000000010000 :
b10 >
b100100010000100000000000000001 $
b100100010000100000000000000001 /
b100100010000100000000000000001 m
1)
#760
0)
#770
b1010000010100 l
b11 ,
b11 X
b11 d
b10 !
b10 -
b10 M
b10 k
b100 [
b100 V
b0 3
b0 K
1%
b10111111110000000000000000010100 '
b10111111110000000000000000010100 5
b10111111110000000000000000010100 i
06
b10 =
b11 G
b11 `
b10 C
b10 f
b10 D
b10 _
b10 e
b10 a
b10 b
b10111111110000000000000000011000 T
b10 W
b10 c
b1 H
b1 \
b0 J
b0 ^
b1 Z
b10111111110000000000000000010100 0
b10111111110000000000000000010100 P
b100100010000100000000000000001 Q
b10111111110000000000000000010100 U
b100100010000100000000000000001 <
b11 >
1)
#780
0)
#790
b0 l
b100011000011111111111111011 ;
b100011000011111111111111011 @
0%
b0 '
b0 5
b0 i
16
b11 =
b10111111110000000000000000010100 :
b10 >
b100011000011111111111111011 $
b100011000011111111111111011 /
b100011000011111111111111011 m
1)
#800
0)
#810
b1010000011000 l
b0 ,
b0 [
b0 V
b100000 3
b100000 K
1%
b10111111110000000000000000011000 '
b10111111110000000000000000011000 5
b10111111110000000000000000011000 i
06
b10 =
b100000 G
b100000 `
b0 C
b0 f
b100000 D
b100000 _
b100000 e
b11 #
b11 .
b11 B
b11 g
b11 a
b1 b
b10111111110000000000000000000100 T
0Y
b10111111110000000000000000011100 X
b10111111110000000000000000011100 d
b11111 W
b11111 c
b0 H
b0 \
b0 !
b0 -
b0 M
b0 k
b0 &
b0 4
b0 L
b0 j
b11111 J
b11111 ^
b11111111111111111111111111111011 Z
b10111111110000000000000000011000 0
b10111111110000000000000000011000 P
b100011000011111111111111011 Q
b10111111110000000000000000011000 U
b100011000011111111111111011 <
b11 >
1)
#820
0)
#830
b100000 l
b100111110111100000000000000000 ;
b100111110111100000000000000000 @
0%
b100000 '
b100000 5
b100000 i
16
b11 =
b10111111110000000000000000011000 :
b10 >
b100111110111100000000000000000 $
b100111110111100000000000000000 /
b100111110111100000000000000000 m
1)
#840
0)
#850
b0 3
b0 K
1F
1A
b0 G
b0 `
b1010000000100 l
b1 ,
b0 D
b0 _
b0 e
1%
b10111111110000000000000000000100 '
b10111111110000000000000000000100 5
b10111111110000000000000000000100 i
06
b10 =
b11110 a
b11110 b
b10111111110000000000000000001000 T
b0 X
b0 d
b1111 &
b1111 4
b1111 L
b1111 j
1Y
b11110 W
b11110 c
b0 J
b0 ^
b0 Z
b10111111110000000000000000000100 0
b10111111110000000000000000000100 P
b100111110111100000000000000000 Q
b10111111110000000000000000000100 U
b100111110111100000000000000000 <
b11 >
1)
#860
0)
#870
b0 l
b10001111100000110000000000000000 ;
b10001111100000110000000000000000 @
0%
b0 '
b0 5
b0 i
16
b11 =
b10111111110000000000000000000100 :
b10 >
b10001111100000110000000000000000 $
b10001111100000110000000000000000 /
b10001111100000110000000000000000 m
1)
#880
0)
#890
b100000 !
b100000 -
b100000 M
b100000 k
b1000000000 [
b1000000000 V
b10000 3
b10000 K
b1010000001000 l
b10 ,
0F
0A
b10000 G
b10000 `
b100000 C
b100000 f
b10000 D
b10000 _
b10000 e
1%
b10111111110000000000000000001000 '
b10111111110000000000000000001000 5
b10111111110000000000000000001000 i
06
b10 =
b11100 a
b11 b
b10111111110000000000000000001100 T
b100000 X
b100000 d
b11 W
b11 c
12
b10111111110000000000000000001000 0
b10111111110000000000000000001000 P
b10001111100000110000000000000000 Q
b10111111110000000000000000001000 U
b10001111100000110000000000000000 <
b11 >
1)
#900
0)
#910
b10000 l
b11 ,
b11000011000000000000000000100 ;
b11000011000000000000000000100 @
b10000 '
b10000 5
b10000 i
b0 =
b10111111110000000000000000001000 :
b10 >
b11000011000000000000000000100 $
b11000011000000000000000000100 /
b11000011000000000000000000100 m
1)
#920
0)
#930
b110001 X
b110001 d
b110001 7
b110001 ?
0%
16
b11 =
b110001 $
b110001 /
b110001 m
b11000011000000000000000000100 <
b0 >
1)
#940
0)
#950
b110100 3
b110100 K
b1010000001100 l
b0 ,
b110001 D
b110001 _
b110001 e
b110101 G
b110101 `
1%
b10111111110000000000000000001100 '
b10111111110000000000000000001100 5
b10111111110000000000000000001100 i
06
b10 =
b11 a
b0 b
b10111111110000000000000000010000 T
b110101 X
b110101 d
b0 !
b0 -
b0 M
b0 k
0Y
b0 W
b0 c
b100 H
b100 \
02
b0 [
b0 V
b10001 J
b10001 ^
b100 Z
b10111111110000000000000000001100 0
b10111111110000000000000000001100 P
b0 C
b0 f
b110001 8
b11 >
b11000011000000000000000000100 Q
b10111111110000000000000000001100 U
1)
#960
0)
#970
b110100 l
b100111100111000000000000000100 ;
b100111100111000000000000000100 @
0%
b110100 '
b110100 5
b110100 i
16
b11 =
b100111100111000000000000000100 $
b100111100111000000000000000100 /
b100111100111000000000000000100 m
b10111111110000000000000000001100 :
b10 >
1)
#980
0)
#990
b10100 X
b10100 d
b10000 !
b10000 -
b10000 M
b10000 k
b100000000 [
b100000000 V
b10000 J
b10000 ^
b10100 3
b10100 K
b1010000010000 l
b1 ,
b10100 G
b10100 `
b10000 C
b10000 f
b10000 D
b10000 _
b10000 e
1%
b10111111110000000000000000010000 '
b10111111110000000000000000010000 5
b10111111110000000000000000010000 i
06
b10 =
b11100 a
b11100 b
b10111111110000000000000000010100 T
1Y
b11100 W
b11100 c
b10111111110000000000000000010000 0
b10111111110000000000000000010000 P
b100111100111000000000000000100 <
b11 >
b100111100111000000000000000100 Q
b10111111110000000000000000010000 U
1)
#1000
0)
#1010
b10100 l
b100100010000100000000000000001 ;
b100100010000100000000000000001 @
0%
b10100 '
b10100 5
b10100 i
16
b11 =
b100100010000100000000000000001 $
b100100010000100000000000000001 /
b100100010000100000000000000001 m
b10111111110000000000000000010000 :
b10 >
1)
#1020
0)
#1030
b1010000010100 l
b10 ,
1%
b10111111110000000000000000010100 '
b10111111110000000000000000010100 5
b10111111110000000000000000010100 i
06
b10 =
b10 a
b10 b
b10111111110000000000000000011000 T
b100 X
b100 d
b11 !
b11 -
b11 M
b11 k
b10 W
b10 c
b1 H
b1 \
b1001 [
b1001 V
b0 J
b0 ^
b1 Z
b100 3
b100 K
b10111111110000000000000000010100 0
b10111111110000000000000000010100 P
b100 G
b100 `
b11 C
b11 f
b11 D
b11 _
b11 e
b100100010000100000000000000001 <
b11 >
b100100010000100000000000000001 Q
b10111111110000000000000000010100 U
1)
#1040
0)
#1050
b100 l
b100011000011111111111111011 ;
b100011000011111111111111011 @
0%
b100 '
b100 5
b100 i
16
b11 =
b100011000011111111111111011 $
b100011000011111111111111011 /
b100011000011111111111111011 m
b10111111110000000000000000010100 :
b10 >
1)
#1060
0)
#1070
b110000 3
b110000 K
b1010000011000 l
b11 ,
0F
1%
b10111111110000000000000000011000 '
b10111111110000000000000000011000 5
b10111111110000000000000000011000 i
06
b10 =
b11 a
b1 b
b10111111110000000000000000000100 T
0Y
b10111111110000000000000000011100 X
b10111111110000000000000000011100 d
b11111 W
b11111 c
b0 H
b0 \
b0 !
b0 -
b0 M
b0 k
b0 &
b0 4
b0 L
b0 j
b0 [
b0 V
b11111 J
b11111 ^
b11111111111111111111111111111011 Z
b10111111110000000000000000011000 0
b10111111110000000000000000011000 P
b110001 G
b110001 `
b0 C
b0 f
b110001 D
b110001 _
b110001 e
b100 #
b100 .
b100 B
b100 g
b100011000011111111111111011 <
b11 >
b100011000011111111111111011 Q
b10111111110000000000000000011000 U
1)
#1080
0)
#1090
b110000 l
b100111110111100000000000000000 ;
b100111110111100000000000000000 @
0%
b110000 '
b110000 5
b110000 i
16
b11 =
b100111110111100000000000000000 $
b100111110111100000000000000000 /
b100111110111100000000000000000 m
b10111111110000000000000000011000 :
b10 >
1)
#1100
0)
#1110
b0 3
b0 K
1F
1A
b0 G
b0 `
b1010000000100 l
b0 ,
b0 D
b0 _
b0 e
1%
b10111111110000000000000000000100 '
b10111111110000000000000000000100 5
b10111111110000000000000000000100 i
06
b10 =
b11110 a
b11110 b
b10111111110000000000000000001000 T
b0 X
b0 d
b1111 &
b1111 4
b1111 L
b1111 j
1Y
b11110 W
b11110 c
b0 J
b0 ^
b0 Z
b10111111110000000000000000000100 0
b10111111110000000000000000000100 P
b100111110111100000000000000000 <
b11 >
b100111110111100000000000000000 Q
b10111111110000000000000000000100 U
1)
#1120
0)
#1130
b0 l
b10001111100000110000000000000000 ;
b10001111100000110000000000000000 @
0%
b0 '
b0 5
b0 i
16
b11 =
b10001111100000110000000000000000 $
b10001111100000110000000000000000 /
b10001111100000110000000000000000 m
b10111111110000000000000000000100 :
b10 >
1)
#1140
0)
