mips_cpu_bus_tb.vcd
$date
	Sat Dec 19 18:27:36 2020
$end
$version
	Icarus Verilog
$end
$timescale
	1s
$end
$scope module mips_cpu_bus_tb $end
$var wire 32 ! writedata [31:0] $end
$var wire 1 " write $end
$var wire 32 # register_v0 [31:0] $end
$var wire 32 $ readdata [31:0] $end
$var wire 1 % read $end
$var wire 4 & byteenable [3:0] $end
$var wire 32 ' address [31:0] $end
$var wire 1 ( active $end
$var reg 1 ) clk $end
$var reg 1 * reset $end
$var reg 1 + waitrequest $end
$scope module cpuInst $end
$var wire 1 ) clk $end
$var wire 1 * reset $end
$var wire 1 + waitrequest $end
$var wire 32 , writedata [31:0] $end
$var wire 32 - register_v0 [31:0] $end
$var wire 32 . readdata [31:0] $end
$var wire 32 / instr_addr [31:0] $end
$var wire 1 0 data_write $end
$var wire 1 1 data_read_en $end
$var wire 32 2 data_addr [31:0] $end
$var wire 4 3 byteenable [3:0] $end
$var wire 1 ( active $end
$var reg 32 4 address [31:0] $end
$var reg 1 5 clk_enable $end
$var reg 32 6 data_read [31:0] $end
$var reg 32 7 data_reg [31:0] $end
$var reg 1 8 delayed $end
$var reg 32 9 instr_addr_reg [31:0] $end
$var reg 32 : instr_read [31:0] $end
$var reg 32 ; instr_reg [31:0] $end
$var reg 2 < next_state [1:0] $end
$var reg 1 % read $end
$var reg 2 = state [1:0] $end
$var reg 1 " write $end
$scope module harvard_cpu $end
$var wire 1 ) clk $end
$var wire 1 5 clk_enable $end
$var wire 32 > data_readdata [31:0] $end
$var wire 32 ? instr_readdata [31:0] $end
$var wire 1 * reset $end
$var wire 1 @ zero $end
$var wire 32 A register_v0 [31:0] $end
$var wire 32 B read_data_b [31:0] $end
$var wire 32 C read_data_a [31:0] $end
$var wire 1 D negative $end
$var wire 1 E equal $end
$var wire 32 F alu_result [31:0] $end
$var reg 1 ( active $end
$var reg 32 G alu_b [31:0] $end
$var reg 4 H alu_control [3:0] $end
$var reg 5 I alu_shift_amt [4:0] $end
$var reg 32 J data_address [31:0] $end
$var reg 4 K data_byteenable [3:0] $end
$var reg 1 1 data_read $end
$var reg 1 0 data_write $end
$var reg 32 L data_writedata [31:0] $end
$var reg 32 M hi_in [31:0] $end
$var reg 32 N hi_reg [31:0] $end
$var reg 32 O instr_address [31:0] $end
$var reg 32 P ir_reg [31:0] $end
$var reg 32 Q lo_in [31:0] $end
$var reg 32 R lo_reg [31:0] $end
$var reg 32 S pc_in [31:0] $end
$var reg 32 T pc_reg [31:0] $end
$var reg 64 U product [63:0] $end
$var reg 5 V regfile_write_addr [4:0] $end
$var reg 32 W regfile_write_data [31:0] $end
$var reg 1 X regfile_write_enable $end
$var reg 32 Y sign_extended_immediate [31:0] $end
$var reg 64 Z u_product [63:0] $end
$scope module alu $end
$var wire 32 [ alu_b [31:0] $end
$var wire 4 \ alu_control [3:0] $end
$var wire 5 ] alu_shift_amt [4:0] $end
$var wire 32 ^ alu_a [31:0] $end
$var reg 32 _ alu_out [31:0] $end
$var reg 1 E equal $end
$var reg 1 D negative $end
$var reg 1 @ zero $end
$upscope $end
$scope module reg_file $end
$var wire 1 ) clk $end
$var wire 1 5 clk_enable $end
$var wire 5 ` read_addr_a [4:0] $end
$var wire 5 a read_addr_b [4:0] $end
$var wire 5 b regfile_write_addr [4:0] $end
$var wire 32 c regfile_write_data [31:0] $end
$var wire 1 X regfile_write_enable $end
$var wire 1 * reset $end
$var reg 32 d read_data_a [31:0] $end
$var reg 32 e read_data_b [31:0] $end
$var reg 32 f register_v0 [31:0] $end
$var integer 32 g i [31:0] $end
$upscope $end
$upscope $end
$upscope $end
$scope module ramInst $end
$var wire 32 h address [31:0] $end
$var wire 4 i byteenable [3:0] $end
$var wire 1 ) clk $end
$var wire 1 % read $end
$var wire 1 + waitrequest $end
$var wire 1 " write $end
$var wire 32 j writedata [31:0] $end
$var reg 13 k mapped_address [12:0] $end
$var reg 32 l readdata [31:0] $end
$scope begin $unm_blk_1 $end
$var integer 32 m i [31:0] $end
$upscope $end
$upscope $end
$upscope $end
$enddefinitions $end
#0
$dumpvars
b10000000000000 m
bx l
bx k
bx j
bx i
bx h
bx g
bx f
bx e
bx d
bx c
bx b
bx a
bx `
bx _
bx ^
bx ]
bx \
bx [
bx Z
bx Y
xX
bx W
bx V
bx U
bx T
bx S
bx R
bx Q
bx P
bx O
bx N
bx M
bx L
bx K
bx J
bx I
bx H
bx G
bx F
xE
xD
bx C
bx B
bx A
x@
bx ?
bx >
bx =
b11 <
bx ;
bx :
bx 9
x8
bx 7
bx 6
15
bx 4
bx 3
bx 2
x1
x0
bx /
bx .
bx -
bx ,
0+
0*
0)
x(
bx '
bx &
0%
bx $
bx #
0"
bx !
$end
#10
bx00 k
bx00 '
bx00 4
bx00 h
b0 !
b0 ,
b0 L
b0 j
b1111 &
b1111 3
b1111 K
b1111 i
b0 H
b0 \
b0 Z
b0 U
bx00 2
bx00 J
0D
1@
b0 B
b0 e
b0 C
b0 ^
b0 d
b0 #
b0 -
b0 A
b0 f
b11 =
1*
1)
#20
0)
#30
b0 W
b0 c
b0 2
b0 J
1E
b0 F
b0 _
b0 G
b0 [
b1010000000000 k
b0 6
b0 >
b0 :
b0 ?
1%
b10111111110000000000000000000000 '
b10111111110000000000000000000000 4
b10111111110000000000000000000000 h
05
b10 <
b0 `
b0 a
b111 H
b111 \
b0 Q
b0 M
b10111111110000000000000000000100 S
1X
b0 V
b0 b
b0 &
b0 3
b0 K
b0 i
01
00
b0 Z
b0 U
b0 I
b0 ]
b0 Y
b10111111110000000000000000000000 /
b10111111110000000000000000000000 O
0D
1@
b0 B
b0 e
b0 C
b0 ^
b0 d
0*
b0 9
b0 7
b0 ;
08
1(
b0 R
b0 N
b0 P
b10111111110000000000000000000000 T
b100000 g
1)
#40
0)
#50
b0 k
b100100011000110000000001010000 :
b100100011000110000000001010000 ?
0%
b0 '
b0 4
b0 h
15
b11 <
b100100011000110000000001010000 $
b100100011000110000000001010000 .
b100100011000110000000001010000 l
b10111111110000000000000000000000 9
b10 =
1)
#60
0)
#70
b1010000 W
b1010000 c
b1010000 2
b1010000 J
b1010000000100 k
0E
b1010000 F
b1010000 _
1%
b10111111110000000000000000000100 '
b10111111110000000000000000000100 4
b10111111110000000000000000000100 h
05
b10 <
b11 `
b11 a
b10111111110000000000000000001000 S
b1111 &
b1111 3
b1111 K
b1111 i
b0 H
b0 \
b11 V
b11 b
b1010000 G
b1010000 [
b1 I
b1 ]
b1010000 Y
b10111111110000000000000000000100 /
b10111111110000000000000000000100 O
b100100011000110000000001010000 ;
b11 =
b100100011000110000000001010000 P
b10111111110000000000000000000100 T
1)
#80
0)
#90
b1010000 k
b110100011000101111111111111111 :
b110100011000101111111111111111 ?
0%
b1010000 '
b1010000 4
b1010000 h
15
b11 <
b110100011000101111111111111111 $
b110100011000101111111111111111 .
b110100011000101111111111111111 l
b10111111110000000000000000000100 9
b10 =
1)
#100
0)
#110
b1010000001000 k
1%
b10111111110000000000000000001000 '
b10111111110000000000000000001000 4
b10111111110000000000000000001000 h
05
b10 <
b10 a
b10111111110000000000000000001100 S
b1111111111111111 W
b1111111111111111 c
b0 !
b0 ,
b0 L
b0 j
b11 H
b11 \
b10 V
b10 b
b1111111111111111 G
b1111111111111111 [
b0 Z
b0 U
b11111 I
b11111 ]
b1111111111111111 Y
b1111111111111100 2
b1111111111111100 J
b10111111110000000000000000001000 /
b10111111110000000000000000001000 O
0E
0@
b1111111111111111 F
b1111111111111111 _
b0 B
b0 e
b1010000 C
b1010000 ^
b1010000 d
b110100011000101111111111111111 ;
b11 =
b110100011000101111111111111111 P
b10111111110000000000000000001000 T
1)
#120
0)
#130
b1111111111100 k
b1111100000001000 :
b1111100000001000 ?
0%
b1111111111111100 '
b1111111111111100 4
b1111111111111100 h
15
b11 <
b1111100000001000 $
b1111100000001000 .
b1111100000001000 l
b10111111110000000000000000001000 9
b10 =
1)
#140
0)
#150
1E
1@
b0 W
b0 c
b0 G
b0 [
b0 2
b0 J
b1010000001100 k
b0 C
b0 ^
b0 d
b0 F
b0 _
1%
b10111111110000000000000000001100 '
b10111111110000000000000000001100 4
b10111111110000000000000000001100 h
05
b10 <
b0 `
b0 a
b0 H
b0 \
b0 S
0X
b11111 V
b11111 b
b0 &
b0 3
b0 K
b0 i
b0 Z
b0 U
b0 I
b0 ]
b11111111111111111111100000001000 Y
b10111111110000000000000000001100 /
b10111111110000000000000000001100 O
b0 B
b0 e
b1111111111111111 #
b1111111111111111 -
b1111111111111111 A
b1111111111111111 f
b1111100000001000 ;
b11 =
b1111100000001000 P
b10111111110000000000000000001100 T
1)
#160
0)
#170
b0 k
b0 :
b0 ?
0%
b0 '
b0 4
b0 h
15
b11 <
b0 $
b0 .
b0 l
b10111111110000000000000000001100 9
b10 =
1)
#180
0)
#190
1%
05
b10 <
b111 H
b111 \
b100 S
1X
b0 V
b0 b
b0 Y
b0 /
b0 O
b0 ;
b11 =
b0 P
b0 T
1)
#200
0)
#210
0%
15
b11 <
b0 9
b10 =
1)
#220
0)
#230
0X
b11 =
0(
1)
