mips_cpu_bus_tb.vcd
$date
	Wed Dec  9 20:27:29 2020
$end
$version
	Icarus Verilog
$end
$timescale
	1s
$end
$scope module mips_cpu_bus_tb $end
$var wire 32 ! writedata [31:0] $end
$var wire 1 " write $end
$var wire 32 # register_v0 [31:0] $end
$var wire 32 $ readdata [31:0] $end
$var wire 1 % read $end
$var wire 4 & byteenable [3:0] $end
$var wire 32 ' address [31:0] $end
$var wire 1 ( active $end
$var reg 1 ) clk $end
$var reg 32 * delayed_readdata [31:0] $end
$var reg 1 + reset $end
$var reg 1 , waitrequest $end
$scope module cpuInst $end
$var wire 1 ) clk $end
$var wire 32 - readdata [31:0] $end
$var wire 1 + reset $end
$var wire 1 , waitrequest $end
$var wire 32 . writedata [31:0] $end
$var wire 32 / register_v0 [31:0] $end
$var wire 32 0 instr_addr [31:0] $end
$var wire 1 1 data_write $end
$var wire 1 2 data_read_en $end
$var wire 32 3 data_addr [31:0] $end
$var wire 4 4 byteenable [3:0] $end
$var wire 1 ( active $end
$var reg 32 5 address [31:0] $end
$var reg 1 6 clk_enable $end
$var reg 32 7 data_read [31:0] $end
$var reg 32 8 data_reg [31:0] $end
$var reg 32 9 instr_addr_reg [31:0] $end
$var reg 32 : instr_read [31:0] $end
$var reg 32 ; instr_reg [31:0] $end
$var reg 2 < next_state [1:0] $end
$var reg 1 % read $end
$var reg 2 = state [1:0] $end
$var reg 1 " write $end
$scope module harvard_cpu $end
$var wire 1 ) clk $end
$var wire 1 6 clk_enable $end
$var wire 32 > data_readdata [31:0] $end
$var wire 32 ? instr_readdata [31:0] $end
$var wire 1 + reset $end
$var wire 1 @ zero $end
$var wire 32 A register_v0 [31:0] $end
$var wire 32 B read_data_b [31:0] $end
$var wire 32 C read_data_a [31:0] $end
$var wire 1 D negative $end
$var wire 1 E equal $end
$var wire 32 F alu_result [31:0] $end
$var reg 1 ( active $end
$var reg 32 G alu_b [31:0] $end
$var reg 4 H alu_control [3:0] $end
$var reg 5 I alu_shift_amt [4:0] $end
$var reg 32 J data_address [31:0] $end
$var reg 4 K data_byteenable [3:0] $end
$var reg 1 2 data_read $end
$var reg 1 1 data_write $end
$var reg 32 L data_writedata [31:0] $end
$var reg 32 M hi_in [31:0] $end
$var reg 32 N hi_reg [31:0] $end
$var reg 32 O instr_address [31:0] $end
$var reg 32 P ir_reg [31:0] $end
$var reg 32 Q lo_in [31:0] $end
$var reg 32 R lo_reg [31:0] $end
$var reg 32 S pc_in [31:0] $end
$var reg 32 T pc_reg [31:0] $end
$var reg 64 U product [63:0] $end
$var reg 32 V quotient [31:0] $end
$var reg 5 W regfile_write_addr [4:0] $end
$var reg 32 X regfile_write_data [31:0] $end
$var reg 1 Y regfile_write_enable $end
$var reg 32 Z remainder [31:0] $end
$scope module alu $end
$var wire 32 [ alu_b [31:0] $end
$var wire 4 \ alu_control [3:0] $end
$var wire 5 ] alu_shift_amt [4:0] $end
$var wire 32 ^ alu_a [31:0] $end
$var reg 32 _ alu_out [31:0] $end
$var reg 1 E equal $end
$var reg 1 D negative $end
$var reg 1 @ zero $end
$upscope $end
$scope module reg_file $end
$var wire 1 ) clk $end
$var wire 1 6 clk_enable $end
$var wire 5 ` read_addr_a [4:0] $end
$var wire 5 a read_addr_b [4:0] $end
$var wire 5 b regfile_write_addr [4:0] $end
$var wire 32 c regfile_write_data [31:0] $end
$var wire 1 Y regfile_write_enable $end
$var wire 1 + reset $end
$var reg 32 d read_data_a [31:0] $end
$var reg 32 e read_data_b [31:0] $end
$var reg 32 f register_v0 [31:0] $end
$var integer 32 g i [31:0] $end
$upscope $end
$upscope $end
$upscope $end
$scope module ramInst $end
$var wire 32 h address [31:0] $end
$var wire 4 i byteenable [3:0] $end
$var wire 1 ) clk $end
$var wire 1 % read $end
$var wire 1 , waitrequest $end
$var wire 1 " write $end
$var wire 32 j writedata [31:0] $end
$var reg 13 k mapped_address [12:0] $end
$var reg 32 l readdata [31:0] $end
$scope begin $unm_blk_1 $end
$var integer 32 m i [31:0] $end
$upscope $end
$upscope $end
$upscope $end
$enddefinitions $end
#0
$dumpvars
b10000000000000 m
bx l
bx00 k
bx j
b1111 i
bx00 h
bx g
bx f
bx e
bx d
bx c
bx b
bx a
bx `
bx _
bx ^
bx ]
b0 \
bx [
bx Z
xY
bx X
bx W
bx V
bx U
bx T
bx S
bx R
bx Q
bx P
bx O
bx N
bx M
bx L
b1111 K
bx00 J
bx I
b0 H
bx G
bx F
xE
xD
bx C
bx B
bx A
x@
bx ?
bx >
bx =
b11 <
bx ;
bx :
bx 9
bx 8
bx 7
16
bx00 5
b1111 4
bx00 3
x2
x1
bx 0
bx /
bx .
bx -
0,
0+
bx *
0)
x(
bx00 '
b1111 &
0%
bx $
bx #
0"
bx !
$end
#10
b0 !
b0 .
b0 L
b0 j
b0 U
0D
1@
b0 B
b0 e
b0 C
b0 ^
b0 d
b0 #
b0 /
b0 A
b0 f
1(
b11 =
1+
1)
#20
0)
#30
b0 X
b0 c
b0 3
b0 J
1E
b0 F
b0 _
b0 G
b0 [
1,
b1010000000000 k
06
b0 7
b0 >
b0 :
b0 ?
1%
b10111111110000000000000000000000 '
b10111111110000000000000000000000 5
b10111111110000000000000000000000 h
b10 <
b0 `
b0 a
b111 H
b111 \
b0 Q
b0 M
b10111111110000000000000000000100 S
1Y
b0 W
b0 b
b0 &
b0 4
b0 K
b0 i
02
01
b0 U
b0 I
b0 ]
b10111111110000000000000000000000 0
b10111111110000000000000000000000 O
0D
1@
b0 B
b0 e
b0 C
b0 ^
b0 d
0+
b0 9
b0 8
b0 ;
b0 R
b0 N
b0 P
b10111111110000000000000000000000 T
b100000 g
1)
#40
0)
#50
1)
#55
b100110011100110000000000001011 $
b100110011100110000000000001011 l
0,
#60
0)
#70
b0 k
16
bx :
bx ?
0%
b0 '
b0 5
b0 h
b11 <
b10 =
b10111111110000000000000000000000 9
1)
#80
0)
#90
xD
x@
bx X
bx c
bx !
bx .
bx L
bx j
bx U
bx00 3
bx00 J
1,
b1010000000100 k
bx B
bx e
bx C
bx ^
bx d
xE
bx F
bx _
06
1%
b10111111110000000000000000000100 '
b10111111110000000000000000000100 5
b10111111110000000000000000000100 h
b10 <
bx `
bx a
b10111111110000000000000000001000 S
b1111 &
b1111 4
b1111 K
b1111 i
b0 H
b0 \
xY
bx W
bx b
bx G
bx [
x2
x1
bx I
bx ]
b10111111110000000000000000000100 0
b10111111110000000000000000000100 O
bx P
b10111111110000000000000000000100 T
b11 =
bx ;
1)
#100
0)
#110
1)
#115
b100111001100100000000 $
b100111001100100000000 l
0,
b100110011100110000000000001011 *
b100110011100110000000000001011 -
#120
0)
#130
bx00 k
16
b100110011100110000000000001011 :
b100110011100110000000000001011 ?
0%
bx00 '
bx00 5
bx00 h
b11 <
b10 =
b10111111110000000000000000000100 9
1)
#140
0)
#150
b1011 X
b1011 c
b0 !
b0 .
b0 L
b0 j
b0 U
b1000 3
b1000 J
0D
0E
1@
b1011 F
b1011 _
bx *
bx -
1,
b1010000001000 k
b0 B
b0 e
b0 C
b0 ^
b0 d
06
1%
b10111111110000000000000000001000 '
b10111111110000000000000000001000 5
b10111111110000000000000000001000 h
b10 <
b10011 `
b10011 a
b10111111110000000000000000001100 S
1Y
b10011 W
b10011 b
b1011 G
b1011 [
02
01
b0 I
b0 ]
b10111111110000000000000000001000 0
b10111111110000000000000000001000 O
b11 =
b100110011100110000000000001011 ;
b100110011100110000000000001011 P
b10111111110000000000000000001000 T
1)
#160
0)
#170
1)
#175
b100110011100110000000000001111 $
b100110011100110000000000001111 l
0,
b100111001100100000000 *
b100111001100100000000 -
#180
0)
#190
b1000 k
16
b100111001100100000000 :
b100111001100100000000 ?
0%
b1000 '
b1000 5
b1000 h
b11 <
b10 =
b10111111110000000000000000001000 9
1)
#200
0)
#210
bx *
bx -
1,
b1010000001100 k
b10110000 X
b10110000 c
b0 Z
b0 V
b10110000 3
b10110000 J
06
1%
b10111111110000000000000000001100 '
b10111111110000000000000000001100 5
b10111111110000000000000000001100 h
b10 <
0E
b10110000 F
b10110000 _
b1011 B
b1011 e
b0 `
b111 H
b111 \
b10111111110000000000000000010000 S
b1011 G
b1011 [
b0 &
b0 4
b0 K
b0 i
b100 I
b100 ]
b10111111110000000000000000001100 0
b10111111110000000000000000001100 O
b100111001100100000000 P
b10111111110000000000000000001100 T
b11 =
b100111001100100000000 ;
1)
#220
0)
#230
1)
#235
b100111001100100000000 $
b100111001100100000000 l
0,
b100110011100110000000000001111 *
b100110011100110000000000001111 -
#240
0)
#250
b10110000 k
16
b100110011100110000000000001111 :
b100110011100110000000000001111 ?
0%
b10110000 '
b10110000 5
b10110000 h
b11 <
b10 =
b10111111110000000000000000001100 9
1)
#260
0)
#270
0@
b10111111 X
b10111111 c
b1 V
b111100100000000 U
b10111100 3
b10111100 J
bx *
bx -
1,
b1010000010000 k
b10110000 C
b10110000 ^
b10110000 d
b10111111 F
b10111111 _
06
1%
b10111111110000000000000000010000 '
b10111111110000000000000000010000 5
b10111111110000000000000000010000 h
b10 <
b10011 `
b10111111110000000000000000010100 S
b10110000 !
b10110000 .
b10110000 L
b10110000 j
b1111 &
b1111 4
b1111 K
b1111 i
b0 H
b0 \
b1111 G
b1111 [
b0 I
b0 ]
b10111111110000000000000000010000 0
b10111111110000000000000000010000 O
b10110000 B
b10110000 e
b11 =
b100110011100110000000000001111 ;
b100110011100110000000000001111 P
b10111111110000000000000000010000 T
1)
#280
0)
#290
1)
#295
b100110011100110000000000001100 $
b100110011100110000000000001100 l
0,
b100111001100100000000 *
b100111001100100000000 -
#300
0)
#310
b10111100 k
16
b100111001100100000000 :
b100111001100100000000 ?
0%
b10111100 '
b10111100 5
b10111100 h
b11 <
b10 =
b10111111110000000000000000010000 9
1)
#320
0)
#330
bx *
bx -
1,
b1010000010100 k
b101111110000 X
b101111110000 c
b0 V
b0 U
b101111110000 3
b101111110000 J
06
1%
b10111111110000000000000000010100 '
b10111111110000000000000000010100 5
b10111111110000000000000000010100 h
b10 <
1@
b101111110000 F
b101111110000 _
b10111111 B
b10111111 e
b0 C
b0 ^
b0 d
b0 `
b111 H
b111 \
b10111111110000000000000000011000 S
b10111111 G
b10111111 [
b0 !
b0 .
b0 L
b0 j
b0 &
b0 4
b0 K
b0 i
b100 I
b100 ]
b10111111110000000000000000010100 0
b10111111110000000000000000010100 O
b100111001100100000000 P
b10111111110000000000000000010100 T
b11 =
b100111001100100000000 ;
1)
#340
0)
#350
1)
#355
b100111001110100000000 $
b100111001110100000000 l
0,
b100110011100110000000000001100 *
b100110011100110000000000001100 -
#360
0)
#370
b101111110000 k
16
b100110011100110000000000001100 :
b100110011100110000000000001100 ?
0%
b101111110000 '
b101111110000 5
b101111110000 h
b11 <
b10 =
b10111111110000000000000000010100 9
1)
#380
0)
#390
0@
b101111111100 X
b101111111100 c
b1 V
b100011101000000100000000 U
b101111111100 3
b101111111100 J
bx *
bx -
1,
b1010000011000 k
b101111110000 C
b101111110000 ^
b101111110000 d
b101111111100 F
b101111111100 _
06
1%
b10111111110000000000000000011000 '
b10111111110000000000000000011000 5
b10111111110000000000000000011000 h
b10 <
b10011 `
b10111111110000000000000000011100 S
b101111110000 !
b101111110000 .
b101111110000 L
b101111110000 j
b1111 &
b1111 4
b1111 K
b1111 i
b0 H
b0 \
b1100 G
b1100 [
b0 I
b0 ]
b10111111110000000000000000011000 0
b10111111110000000000000000011000 O
b101111110000 B
b101111110000 e
b11 =
b100110011100110000000000001100 ;
b100110011100110000000000001100 P
b10111111110000000000000000011000 T
1)
#400
0)
#410
1)
#415
b100110011100110000000000101000 $
b100110011100110000000000101000 l
0,
b100111001110100000000 *
b100111001110100000000 -
#420
0)
#430
b101111111100 k
16
b100111001110100000000 :
b100111001110100000000 ?
0%
b101111111100 '
b101111111100 5
b101111111100 h
b11 <
b10 =
b10111111110000000000000000011000 9
1)
#440
0)
#450
bx *
bx -
1,
b1010000011100 k
b10111111110000000000000000000000 X
b10111111110000000000000000000000 c
b0 V
b0 U
b10111111110000000000000000000000 3
b10111111110000000000000000000000 J
06
1%
b10111111110000000000000000011100 '
b10111111110000000000000000011100 5
b10111111110000000000000000011100 h
b10 <
1@
b10111111110000000000000000000000 F
b10111111110000000000000000000000 _
b101111111100 B
b101111111100 e
b0 C
b0 ^
b0 d
b0 `
b111 H
b111 \
b10111111110000000000000000100000 S
b101111111100 G
b101111111100 [
b0 !
b0 .
b0 L
b0 j
b0 &
b0 4
b0 K
b0 i
b10100 I
b10100 ]
b10111111110000000000000000011100 0
b10111111110000000000000000011100 O
b100111001110100000000 P
b10111111110000000000000000011100 T
b11 =
b100111001110100000000 ;
1)
#460
0)
#470
1)
#475
b10011000000000000000001000 $
b10011000000000000000001000 l
0,
b100110011100110000000000101000 *
b100110011100110000000000101000 -
#480
0)
#490
b1010000000000 k
16
b100110011100110000000000101000 :
b100110011100110000000000101000 ?
0%
b10111111110000000000000000000000 '
b10111111110000000000000000000000 5
b10111111110000000000000000000000 h
b11 <
b10 =
b10111111110000000000000000011100 9
1)
#500
0)
#510
1D
0@
b10111111110000000000000000101000 X
b10111111110000000000000000101000 c
b1 V
b1000111110100000000100000000000000000000000000000000000000000000 U
b10111111110000000000000000101000 3
b10111111110000000000000000101000 J
bx *
bx -
1,
b1010000100000 k
b10111111110000000000000000000000 C
b10111111110000000000000000000000 ^
b10111111110000000000000000000000 d
b10111111110000000000000000101000 F
b10111111110000000000000000101000 _
06
1%
b10111111110000000000000000100000 '
b10111111110000000000000000100000 5
b10111111110000000000000000100000 h
b10 <
b10011 `
b10111111110000000000000000100100 S
b10111111110000000000000000000000 !
b10111111110000000000000000000000 .
b10111111110000000000000000000000 L
b10111111110000000000000000000000 j
b1111 &
b1111 4
b1111 K
b1111 i
b0 H
b0 \
b101000 G
b101000 [
b0 I
b0 ]
b10111111110000000000000000100000 0
b10111111110000000000000000100000 O
b10111111110000000000000000000000 B
b10111111110000000000000000000000 e
b11 =
b100110011100110000000000101000 ;
b100110011100110000000000101000 P
b10111111110000000000000000100000 T
1)
#520
0)
#530
1)
#535
b100100010000100000000000000101 $
b100100010000100000000000000101 l
0,
b10011000000000000000001000 *
b10011000000000000000001000 -
#540
0)
#550
b1010000101000 k
16
b10011000000000000000001000 :
b10011000000000000000001000 ?
0%
b10111111110000000000000000101000 '
b10111111110000000000000000101000 5
b10111111110000000000000000101000 h
b11 <
b10 =
b10111111110000000000000000100000 9
1)
#560
0)
#570
bx *
bx -
1,
b1010000100100 k
b10111111110000000000000000101000 X
b10111111110000000000000000101000 c
bx Z
bx V
b0 U
b10111111110000000000000000101000 3
b10111111110000000000000000101000 J
06
1%
b10111111110000000000000000100100 '
b10111111110000000000000000100100 5
b10111111110000000000000000100100 h
b10 <
b10111111110000000000000000101000 F
b10111111110000000000000000101000 _
b0 B
b0 e
b10111111110000000000000000101000 C
b10111111110000000000000000101000 ^
b10111111110000000000000000101000 d
b0 a
b10111111110000000000000000101000 S
0Y
b0 W
b0 b
b0 G
b0 [
b0 !
b0 .
b0 L
b0 j
b0 &
b0 4
b0 K
b0 i
b10111111110000000000000000100100 0
b10111111110000000000000000100100 O
b10011000000000000000001000 P
b10111111110000000000000000100100 T
b11 =
b10011000000000000000001000 ;
1)
#580
0)
#590
1)
#595
0,
b100100010000100000000000000101 *
b100100010000100000000000000101 -
#600
0)
#610
b1010000101000 k
16
b100100010000100000000000000101 :
b100100010000100000000000000101 ?
0%
b10111111110000000000000000101000 '
b10111111110000000000000000101000 5
b10111111110000000000000000101000 h
b11 <
b10 =
b10111111110000000000000000100100 9
1)
#620
0)
#630
0D
1@
b101 X
b101 c
b100 3
b100 J
bx *
bx -
1,
b0 C
b0 ^
b0 d
b101 F
b101 _
06
1%
b10 <
b10 `
b10 a
b10111111110000000000000000101100 S
b1111 &
b1111 4
b1111 K
b1111 i
1Y
b10 W
b10 b
b101 G
b101 [
b0 I
b0 ]
b10111111110000000000000000101000 0
b10111111110000000000000000101000 O
b11 =
b100100010000100000000000000101 ;
b100100010000100000000000000101 P
b10111111110000000000000000101000 T
1)
#640
0)
#650
1)
#655
b1000 $
b1000 l
0,
b100100010000100000000000000101 *
b100100010000100000000000000101 -
#660
0)
#670
b100 k
16
0%
b100 '
b100 5
b100 h
b11 <
b10 =
b10111111110000000000000000101000 9
1)
#680
0)
#690
bx *
bx -
1,
b1010000101100 k
b1010 X
b1010 c
b101 !
b101 .
b101 L
b101 j
b0 Z
b1 V
b11001 U
b101 I
b101 ]
b1000 3
b1000 J
06
1%
b10111111110000000000000000101100 '
b10111111110000000000000000101100 5
b10111111110000000000000000101100 h
b10 <
1E
0@
b1010 F
b1010 _
b101 B
b101 e
b101 C
b101 ^
b101 d
b101 #
b101 /
b101 A
b101 f
b10111111110000000000000000110000 S
b10111111110000000000000000101100 0
b10111111110000000000000000101100 O
b10111111110000000000000000101100 T
b11 =
1)
#700
0)
#710
1)
#715
b0 $
b0 l
0,
b1000 *
b1000 -
#720
0)
#730
b1000 k
16
b1000 :
b1000 ?
0%
b1000 '
b1000 5
b1000 h
b11 <
b10 =
b10111111110000000000000000101100 9
1)
#740
0)
#750
1@
bx Z
bx V
bx *
bx -
1,
b1010000110000 k
06
1%
b10111111110000000000000000110000 '
b10111111110000000000000000110000 5
b10111111110000000000000000110000 h
b10 <
b0 `
b0 a
b0 S
0Y
b0 X
b0 c
b0 W
b0 b
b0 G
b0 [
b0 !
b0 .
b0 L
b0 j
b0 &
b0 4
b0 K
b0 i
b0 U
b0 I
b0 ]
b0 3
b0 J
b10111111110000000000000000110000 0
b10111111110000000000000000110000 O
1E
b0 F
b0 _
b0 B
b0 e
b0 C
b0 ^
b0 d
b1010 #
b1010 /
b1010 A
b1010 f
b11 =
b1000 ;
b1000 P
b10111111110000000000000000110000 T
1)
#760
0)
#770
1)
#775
0,
b0 *
b0 -
#780
0)
#790
b0 k
16
b0 :
b0 ?
0%
b0 '
b0 5
b0 h
b11 <
b10 =
b10111111110000000000000000110000 9
1)
#800
0)
#810
bx *
bx -
1,
06
1%
b10 <
b111 H
b111 \
b100 S
b0 0
b0 O
0(
b0 P
b0 T
b11 =
b0 ;
1)
